('/home/maxone/stimulation-controller/CentOS/build/stimulation_controller/PKG-00.pkg',
 {'BINARY': 1,
  'DATA': 1,
  'EXECUTABLE': 1,
  'EXTENSION': 1,
  'PYMODULE': 1,
  'PYSOURCE': 1,
  'PYZ': 0},
 [('PYZ-00.pyz',
   '/home/maxone/stimulation-controller/CentOS/build/stimulation_controller/PYZ-00.pyz',
   'PYZ'),
  ('_struct',
   '/usr/lib64/python3.6/lib-dynload/_struct.cpython-36m-x86_64-linux-gnu.so',
   'EXTENSION'),
  ('zlib',
   '/usr/lib64/python3.6/lib-dynload/zlib.cpython-36m-x86_64-linux-gnu.so',
   'EXTENSION'),
  ('struct',
   '/home/maxone/stimulation-controller/CentOS/build/stimulation_controller/localpycos/struct.pyo',
   'PYMODULE'),
  ('pyimod01_os_path',
   '/home/maxone/venvs/controller/lib64/python3.6/site-packages/PyInstaller/loader/pyimod01_os_path.pyc',
   'PYMODULE'),
  ('pyimod02_archive',
   '/home/maxone/venvs/controller/lib64/python3.6/site-packages/PyInstaller/loader/pyimod02_archive.pyc',
   'PYMODULE'),
  ('pyimod03_importers',
   '/home/maxone/venvs/controller/lib64/python3.6/site-packages/PyInstaller/loader/pyimod03_importers.pyc',
   'PYMODULE'),
  ('pyiboot01_bootstrap',
   '/home/maxone/venvs/controller/lib64/python3.6/site-packages/PyInstaller/loader/pyiboot01_bootstrap.py',
   'PYSOURCE'),
  ('pyi_rth_pkgres',
   '/home/maxone/venvs/controller/lib/python3.6/site-packages/PyInstaller/hooks/rthooks/pyi_rth_pkgres.py',
   'PYSOURCE'),
  ('pyi_rth_multiprocessing',
   '/home/maxone/venvs/controller/lib/python3.6/site-packages/PyInstaller/hooks/rthooks/pyi_rth_multiprocessing.py',
   'PYSOURCE'),
  ('pyi_rth_pyside2',
   '/home/maxone/venvs/controller/lib/python3.6/site-packages/PyInstaller/hooks/rthooks/pyi_rth_pyside2.py',
   'PYSOURCE'),
  ('stimulation_controller',
   '/home/maxone/stimulation-controller/stimulation_controller.py',
   'PYSOURCE')],
 True,
 False,
 False,
 [])
