('/home/maxone/stimulation-controller/CentOS/build/stimulation_controller/PYZ-00.pyz',
 [('multiprocessing.popen_fork',
   '/usr/lib64/python3.6/multiprocessing/popen_fork.py',
   'PYMODULE'),
  ('random', '/usr/lib64/python3.6/random.py', 'PYMODULE'),
  ('bisect', '/usr/lib64/python3.6/bisect.py', 'PYMODULE'),
  ('hashlib', '/usr/lib64/python3.6/hashlib.py', 'PYMODULE'),
  ('logging', '/usr/lib64/python3.6/logging/__init__.py', 'PYMODULE'),
  ('threading', '/usr/lib64/python3.6/threading.py', 'PYMODULE'),
  ('_threading_local', '/usr/lib64/python3.6/_threading_local.py', 'PYMODULE'),
  ('contextlib', '/usr/lib64/python3.6/contextlib.py', 'PYMODULE'),
  ('string', '/usr/lib64/python3.6/string.py', 'PYMODULE'),
  ('multiprocessing.connection',
   '/usr/lib64/python3.6/multiprocessing/connection.py',
   'PYMODULE'),
  ('multiprocessing.resource_sharer',
   '/usr/lib64/python3.6/multiprocessing/resource_sharer.py',
   'PYMODULE'),
  ('multiprocessing.process',
   '/usr/lib64/python3.6/multiprocessing/process.py',
   'PYMODULE'),
  ('selectors', '/usr/lib64/python3.6/selectors.py', 'PYMODULE'),
  ('xmlrpc.client', '/usr/lib64/python3.6/xmlrpc/client.py', 'PYMODULE'),
  ('xmlrpc', '/usr/lib64/python3.6/xmlrpc/__init__.py', 'PYMODULE'),
  ('gzip', '/usr/lib64/python3.6/gzip.py', 'PYMODULE'),
  ('_compression', '/usr/lib64/python3.6/_compression.py', 'PYMODULE'),
  ('xml.parsers.expat',
   '/usr/lib64/python3.6/xml/parsers/expat.py',
   'PYMODULE'),
  ('xml.parsers', '/usr/lib64/python3.6/xml/parsers/__init__.py', 'PYMODULE'),
  ('xml', '/usr/lib64/python3.6/xml/__init__.py', 'PYMODULE'),
  ('xml.sax.expatreader',
   '/usr/lib64/python3.6/xml/sax/expatreader.py',
   'PYMODULE'),
  ('xml.sax.saxutils', '/usr/lib64/python3.6/xml/sax/saxutils.py', 'PYMODULE'),
  ('urllib.request', '/usr/lib64/python3.6/urllib/request.py', 'PYMODULE'),
  ('fnmatch', '/usr/lib64/python3.6/fnmatch.py', 'PYMODULE'),
  ('getpass', '/usr/lib64/python3.6/getpass.py', 'PYMODULE'),
  ('nturl2path', '/usr/lib64/python3.6/nturl2path.py', 'PYMODULE'),
  ('ftplib', '/usr/lib64/python3.6/ftplib.py', 'PYMODULE'),
  ('netrc', '/usr/lib64/python3.6/netrc.py', 'PYMODULE'),
  ('stat', '/usr/lib64/python3.6/stat.py', 'PYMODULE'),
  ('shlex', '/usr/lib64/python3.6/shlex.py', 'PYMODULE'),
  ('mimetypes', '/usr/lib64/python3.6/mimetypes.py', 'PYMODULE'),
  ('getopt', '/usr/lib64/python3.6/getopt.py', 'PYMODULE'),
  ('gettext', '/usr/lib64/python3.6/gettext.py', 'PYMODULE'),
  ('copy', '/usr/lib64/python3.6/copy.py', 'PYMODULE'),
  ('email.utils', '/usr/lib64/python3.6/email/utils.py', 'PYMODULE'),
  ('email.charset', '/usr/lib64/python3.6/email/charset.py', 'PYMODULE'),
  ('email.encoders', '/usr/lib64/python3.6/email/encoders.py', 'PYMODULE'),
  ('quopri', '/usr/lib64/python3.6/quopri.py', 'PYMODULE'),
  ('email.errors', '/usr/lib64/python3.6/email/errors.py', 'PYMODULE'),
  ('email.quoprimime', '/usr/lib64/python3.6/email/quoprimime.py', 'PYMODULE'),
  ('email.base64mime', '/usr/lib64/python3.6/email/base64mime.py', 'PYMODULE'),
  ('email._parseaddr', '/usr/lib64/python3.6/email/_parseaddr.py', 'PYMODULE'),
  ('calendar', '/usr/lib64/python3.6/calendar.py', 'PYMODULE'),
  ('argparse', '/usr/lib64/python3.6/argparse.py', 'PYMODULE'),
  ('textwrap', '/usr/lib64/python3.6/textwrap.py', 'PYMODULE'),
  ('http.cookiejar', '/usr/lib64/python3.6/http/cookiejar.py', 'PYMODULE'),
  ('http', '/usr/lib64/python3.6/http/__init__.py', 'PYMODULE'),
  ('dummy_threading', '/usr/lib64/python3.6/dummy_threading.py', 'PYMODULE'),
  ('_dummy_thread', '/usr/lib64/python3.6/_dummy_thread.py', 'PYMODULE'),
  ('urllib', '/usr/lib64/python3.6/urllib/__init__.py', 'PYMODULE'),
  ('ssl', '/usr/lib64/python3.6/ssl.py', 'PYMODULE'),
  ('ipaddress', '/usr/lib64/python3.6/ipaddress.py', 'PYMODULE'),
  ('urllib.response', '/usr/lib64/python3.6/urllib/response.py', 'PYMODULE'),
  ('urllib.error', '/usr/lib64/python3.6/urllib/error.py', 'PYMODULE'),
  ('posixpath', '/usr/lib64/python3.6/posixpath.py', 'PYMODULE'),
  ('genericpath', '/usr/lib64/python3.6/genericpath.py', 'PYMODULE'),
  ('email', '/usr/lib64/python3.6/email/__init__.py', 'PYMODULE'),
  ('email.parser', '/usr/lib64/python3.6/email/parser.py', 'PYMODULE'),
  ('email._policybase',
   '/usr/lib64/python3.6/email/_policybase.py',
   'PYMODULE'),
  ('email.feedparser', '/usr/lib64/python3.6/email/feedparser.py', 'PYMODULE'),
  ('email.message', '/usr/lib64/python3.6/email/message.py', 'PYMODULE'),
  ('email.policy', '/usr/lib64/python3.6/email/policy.py', 'PYMODULE'),
  ('email.contentmanager',
   '/usr/lib64/python3.6/email/contentmanager.py',
   'PYMODULE'),
  ('email.headerregistry',
   '/usr/lib64/python3.6/email/headerregistry.py',
   'PYMODULE'),
  ('email.iterators', '/usr/lib64/python3.6/email/iterators.py', 'PYMODULE'),
  ('email.generator', '/usr/lib64/python3.6/email/generator.py', 'PYMODULE'),
  ('email._encoded_words',
   '/usr/lib64/python3.6/email/_encoded_words.py',
   'PYMODULE'),
  ('uu', '/usr/lib64/python3.6/uu.py', 'PYMODULE'),
  ('optparse', '/usr/lib64/python3.6/optparse.py', 'PYMODULE'),
  ('email._header_value_parser',
   '/usr/lib64/python3.6/email/_header_value_parser.py',
   'PYMODULE'),
  ('email.header', '/usr/lib64/python3.6/email/header.py', 'PYMODULE'),
  ('xml.sax', '/usr/lib64/python3.6/xml/sax/__init__.py', 'PYMODULE'),
  ('xml.sax.handler', '/usr/lib64/python3.6/xml/sax/handler.py', 'PYMODULE'),
  ('xml.sax._exceptions',
   '/usr/lib64/python3.6/xml/sax/_exceptions.py',
   'PYMODULE'),
  ('xml.sax.xmlreader',
   '/usr/lib64/python3.6/xml/sax/xmlreader.py',
   'PYMODULE'),
  ('urllib.parse', '/usr/lib64/python3.6/urllib/parse.py', 'PYMODULE'),
  ('http.client', '/usr/lib64/python3.6/http/client.py', 'PYMODULE'),
  ('decimal', '/usr/lib64/python3.6/decimal.py', 'PYMODULE'),
  ('_pydecimal', '/usr/lib64/python3.6/_pydecimal.py', 'PYMODULE'),
  ('numbers', '/usr/lib64/python3.6/numbers.py', 'PYMODULE'),
  ('datetime', '/usr/lib64/python3.6/datetime.py', 'PYMODULE'),
  ('_strptime', '/usr/lib64/python3.6/_strptime.py', 'PYMODULE'),
  ('base64', '/usr/lib64/python3.6/base64.py', 'PYMODULE'),
  ('hmac', '/usr/lib64/python3.6/hmac.py', 'PYMODULE'),
  ('multiprocessing.context',
   '/usr/lib64/python3.6/multiprocessing/context.py',
   'PYMODULE'),
  ('multiprocessing.popen_forkserver',
   '/usr/lib64/python3.6/multiprocessing/popen_forkserver.py',
   'PYMODULE'),
  ('multiprocessing.popen_spawn_posix',
   '/usr/lib64/python3.6/multiprocessing/popen_spawn_posix.py',
   'PYMODULE'),
  ('multiprocessing.semaphore_tracker',
   '/usr/lib64/python3.6/multiprocessing/semaphore_tracker.py',
   'PYMODULE'),
  ('multiprocessing.forkserver',
   '/usr/lib64/python3.6/multiprocessing/forkserver.py',
   'PYMODULE'),
  ('multiprocessing.sharedctypes',
   '/usr/lib64/python3.6/multiprocessing/sharedctypes.py',
   'PYMODULE'),
  ('multiprocessing.heap',
   '/usr/lib64/python3.6/multiprocessing/heap.py',
   'PYMODULE'),
  ('ctypes', '/usr/lib64/python3.6/ctypes/__init__.py', 'PYMODULE'),
  ('ctypes.wintypes', '/usr/lib64/python3.6/ctypes/wintypes.py', 'PYMODULE'),
  ('ctypes._endian', '/usr/lib64/python3.6/ctypes/_endian.py', 'PYMODULE'),
  ('multiprocessing.pool',
   '/usr/lib64/python3.6/multiprocessing/pool.py',
   'PYMODULE'),
  ('multiprocessing.dummy',
   '/usr/lib64/python3.6/multiprocessing/dummy/__init__.py',
   'PYMODULE'),
  ('multiprocessing.dummy.connection',
   '/usr/lib64/python3.6/multiprocessing/dummy/connection.py',
   'PYMODULE'),
  ('queue', '/usr/lib64/python3.6/queue.py', 'PYMODULE'),
  ('multiprocessing.queues',
   '/usr/lib64/python3.6/multiprocessing/queues.py',
   'PYMODULE'),
  ('multiprocessing.synchronize',
   '/usr/lib64/python3.6/multiprocessing/synchronize.py',
   'PYMODULE'),
  ('multiprocessing.managers',
   '/usr/lib64/python3.6/multiprocessing/managers.py',
   'PYMODULE'),
  ('multiprocessing.reduction',
   '/usr/lib64/python3.6/multiprocessing/reduction.py',
   'PYMODULE'),
  ('pickle', '/usr/lib64/python3.6/pickle.py', 'PYMODULE'),
  ('pprint', '/usr/lib64/python3.6/pprint.py', 'PYMODULE'),
  ('doctest', '/usr/lib64/python3.6/doctest.py', 'PYMODULE'),
  ('unittest', '/usr/lib64/python3.6/unittest/__init__.py', 'PYMODULE'),
  ('unittest.signals', '/usr/lib64/python3.6/unittest/signals.py', 'PYMODULE'),
  ('unittest.main', '/usr/lib64/python3.6/unittest/main.py', 'PYMODULE'),
  ('unittest.runner', '/usr/lib64/python3.6/unittest/runner.py', 'PYMODULE'),
  ('unittest.loader', '/usr/lib64/python3.6/unittest/loader.py', 'PYMODULE'),
  ('unittest.suite', '/usr/lib64/python3.6/unittest/suite.py', 'PYMODULE'),
  ('unittest.case', '/usr/lib64/python3.6/unittest/case.py', 'PYMODULE'),
  ('unittest.result', '/usr/lib64/python3.6/unittest/result.py', 'PYMODULE'),
  ('unittest.util', '/usr/lib64/python3.6/unittest/util.py', 'PYMODULE'),
  ('pdb', '/usr/lib64/python3.6/pdb.py', 'PYMODULE'),
  ('pydoc', '/usr/lib64/python3.6/pydoc.py', 'PYMODULE'),
  ('webbrowser', '/usr/lib64/python3.6/webbrowser.py', 'PYMODULE'),
  ('shutil', '/usr/lib64/python3.6/shutil.py', 'PYMODULE'),
  ('zipfile', '/usr/lib64/python3.6/zipfile.py', 'PYMODULE'),
  ('py_compile', '/usr/lib64/python3.6/py_compile.py', 'PYMODULE'),
  ('tarfile', '/usr/lib64/python3.6/tarfile.py', 'PYMODULE'),
  ('lzma', '/usr/lib64/python3.6/lzma.py', 'PYMODULE'),
  ('bz2', '/usr/lib64/python3.6/bz2.py', 'PYMODULE'),
  ('http.server', '/usr/lib64/python3.6/http/server.py', 'PYMODULE'),
  ('socketserver', '/usr/lib64/python3.6/socketserver.py', 'PYMODULE'),
  ('html', '/usr/lib64/python3.6/html/__init__.py', 'PYMODULE'),
  ('html.entities', '/usr/lib64/python3.6/html/entities.py', 'PYMODULE'),
  ('pydoc_data.topics',
   '/usr/lib64/python3.6/pydoc_data/topics.py',
   'PYMODULE'),
  ('pydoc_data', '/usr/lib64/python3.6/pydoc_data/__init__.py', 'PYMODULE'),
  ('tty', '/usr/lib64/python3.6/tty.py', 'PYMODULE'),
  ('tokenize', '/usr/lib64/python3.6/tokenize.py', 'PYMODULE'),
  ('token', '/usr/lib64/python3.6/token.py', 'PYMODULE'),
  ('platform', '/usr/lib64/python3.6/platform.py', 'PYMODULE'),
  ('plistlib', '/usr/lib64/python3.6/plistlib.py', 'PYMODULE'),
  ('pkgutil', '/usr/lib64/python3.6/pkgutil.py', 'PYMODULE'),
  ('importlib', '/usr/lib64/python3.6/importlib/__init__.py', 'PYMODULE'),
  ('importlib.abc', '/usr/lib64/python3.6/importlib/abc.py', 'PYMODULE'),
  ('importlib.util', '/usr/lib64/python3.6/importlib/util.py', 'PYMODULE'),
  ('importlib.machinery',
   '/usr/lib64/python3.6/importlib/machinery.py',
   'PYMODULE'),
  ('importlib._bootstrap_external',
   '/usr/lib64/python3.6/importlib/_bootstrap_external.py',
   'PYMODULE'),
  ('importlib._bootstrap',
   '/usr/lib64/python3.6/importlib/_bootstrap.py',
   'PYMODULE'),
  ('glob', '/usr/lib64/python3.6/glob.py', 'PYMODULE'),
  ('code', '/usr/lib64/python3.6/code.py', 'PYMODULE'),
  ('codeop', '/usr/lib64/python3.6/codeop.py', 'PYMODULE'),
  ('dis', '/usr/lib64/python3.6/dis.py', 'PYMODULE'),
  ('opcode', '/usr/lib64/python3.6/opcode.py', 'PYMODULE'),
  ('bdb', '/usr/lib64/python3.6/bdb.py', 'PYMODULE'),
  ('cmd', '/usr/lib64/python3.6/cmd.py', 'PYMODULE'),
  ('inspect', '/usr/lib64/python3.6/inspect.py', 'PYMODULE'),
  ('ast', '/usr/lib64/python3.6/ast.py', 'PYMODULE'),
  ('difflib', '/usr/lib64/python3.6/difflib.py', 'PYMODULE'),
  ('__future__', '/usr/lib64/python3.6/__future__.py', 'PYMODULE'),
  ('_compat_pickle', '/usr/lib64/python3.6/_compat_pickle.py', 'PYMODULE'),
  ('tempfile', '/usr/lib64/python3.6/tempfile.py', 'PYMODULE'),
  ('struct', '/usr/lib64/python3.6/struct.py', 'PYMODULE'),
  ('socket', '/usr/lib64/python3.6/socket.py', 'PYMODULE'),
  ('multiprocessing.util',
   '/usr/lib64/python3.6/multiprocessing/util.py',
   'PYMODULE'),
  ('signal', '/usr/lib64/python3.6/signal.py', 'PYMODULE'),
  ('multiprocessing.popen_spawn_win32',
   '/usr/lib64/python3.6/multiprocessing/popen_spawn_win32.py',
   'PYMODULE'),
  ('subprocess', '/usr/lib64/python3.6/subprocess.py', 'PYMODULE'),
  ('multiprocessing.spawn',
   '/usr/lib64/python3.6/multiprocessing/spawn.py',
   'PYMODULE'),
  ('runpy', '/usr/lib64/python3.6/runpy.py', 'PYMODULE'),
  ('multiprocessing',
   '/usr/lib64/python3.6/multiprocessing/__init__.py',
   'PYMODULE'),
  ('pkg_resources',
   '/home/maxone/venvs/controller/lib64/python3.6/site-packages/pkg_resources/__init__.py',
   'PYMODULE'),
  ('pkg_resources._vendor.packaging.utils',
   '/home/maxone/venvs/controller/lib64/python3.6/site-packages/pkg_resources/_vendor/packaging/utils.py',
   'PYMODULE'),
  ('pkg_resources._vendor.packaging',
   '/home/maxone/venvs/controller/lib64/python3.6/site-packages/pkg_resources/_vendor/packaging/__init__.py',
   'PYMODULE'),
  ('pkg_resources._vendor.appdirs',
   '/home/maxone/venvs/controller/lib64/python3.6/site-packages/pkg_resources/_vendor/appdirs.py',
   'PYMODULE'),
  ('pkg_resources._vendor.packaging._compat',
   '/home/maxone/venvs/controller/lib64/python3.6/site-packages/pkg_resources/_vendor/packaging/_compat.py',
   'PYMODULE'),
  ('pkg_resources._vendor.packaging.markers',
   '/home/maxone/venvs/controller/lib64/python3.6/site-packages/pkg_resources/_vendor/packaging/markers.py',
   'PYMODULE'),
  ('pkg_resources._vendor.six',
   '/home/maxone/venvs/controller/lib64/python3.6/site-packages/pkg_resources/_vendor/six.py',
   'PYMODULE'),
  ('pkg_resources._vendor.packaging.version',
   '/home/maxone/venvs/controller/lib64/python3.6/site-packages/pkg_resources/_vendor/packaging/version.py',
   'PYMODULE'),
  ('pkg_resources._vendor.pyparsing',
   '/home/maxone/venvs/controller/lib64/python3.6/site-packages/pkg_resources/_vendor/pyparsing.py',
   'PYMODULE'),
  ('uuid', '/usr/lib64/python3.6/uuid.py', 'PYMODULE'),
  ('ctypes.util', '/usr/lib64/python3.6/ctypes/util.py', 'PYMODULE'),
  ('ctypes.macholib.dyld',
   '/usr/lib64/python3.6/ctypes/macholib/dyld.py',
   'PYMODULE'),
  ('ctypes.macholib',
   '/usr/lib64/python3.6/ctypes/macholib/__init__.py',
   'PYMODULE'),
  ('ctypes.macholib.dylib',
   '/usr/lib64/python3.6/ctypes/macholib/dylib.py',
   'PYMODULE'),
  ('ctypes.macholib.framework',
   '/usr/lib64/python3.6/ctypes/macholib/framework.py',
   'PYMODULE'),
  ('pkg_resources._vendor.packaging.__about__',
   '/home/maxone/venvs/controller/lib64/python3.6/site-packages/pkg_resources/_vendor/packaging/__about__.py',
   'PYMODULE'),
  ('pkg_resources._vendor',
   '/home/maxone/venvs/controller/lib64/python3.6/site-packages/pkg_resources/_vendor/__init__.py',
   'PYMODULE'),
  ('pkg_resources._vendor.packaging._structures',
   '/home/maxone/venvs/controller/lib64/python3.6/site-packages/pkg_resources/_vendor/packaging/_structures.py',
   'PYMODULE'),
  ('pkg_resources._vendor.packaging.specifiers',
   '/home/maxone/venvs/controller/lib64/python3.6/site-packages/pkg_resources/_vendor/packaging/specifiers.py',
   'PYMODULE'),
  ('pkg_resources._vendor.packaging.requirements',
   '/home/maxone/venvs/controller/lib64/python3.6/site-packages/pkg_resources/_vendor/packaging/requirements.py',
   'PYMODULE'),
  ('sysconfig', '/usr/lib64/python3.6/sysconfig.py', 'PYMODULE'),
  ('_sysconfigdata_m_linux_x86_64-linux-gnu',
   '/usr/lib64/python3.6/_sysconfigdata_m_linux_x86_64-linux-gnu.py',
   'PYMODULE'),
  ('_osx_support', '/usr/lib64/python3.6/_osx_support.py', 'PYMODULE'),
  ('distutils.log', '/usr/lib64/python3.6/distutils/log.py', 'PYMODULE'),
  ('distutils', '/usr/lib64/python3.6/distutils/__init__.py', 'PYMODULE'),
  ('distutils.archive_util',
   '/usr/lib64/python3.6/distutils/archive_util.py',
   'PYMODULE'),
  ('distutils.dir_util',
   '/usr/lib64/python3.6/distutils/dir_util.py',
   'PYMODULE'),
  ('distutils.file_util',
   '/usr/lib64/python3.6/distutils/file_util.py',
   'PYMODULE'),
  ('distutils.dep_util',
   '/usr/lib64/python3.6/distutils/dep_util.py',
   'PYMODULE'),
  ('distutils.spawn', '/usr/lib64/python3.6/distutils/spawn.py', 'PYMODULE'),
  ('distutils.debug', '/usr/lib64/python3.6/distutils/debug.py', 'PYMODULE'),
  ('distutils.errors', '/usr/lib64/python3.6/distutils/errors.py', 'PYMODULE'),
  ('distutils.ccompiler',
   '/usr/lib64/python3.6/distutils/ccompiler.py',
   'PYMODULE'),
  ('distutils.fancy_getopt',
   '/usr/lib64/python3.6/distutils/fancy_getopt.py',
   'PYMODULE'),
  ('distutils.util', '/usr/lib64/python3.6/distutils/util.py', 'PYMODULE'),
  ('distutils.filelist',
   '/usr/lib64/python3.6/distutils/filelist.py',
   'PYMODULE'),
  ('lib2to3.refactor', '/usr/lib64/python3.6/lib2to3/refactor.py', 'PYMODULE'),
  ('lib2to3.btm_matcher',
   '/usr/lib64/python3.6/lib2to3/btm_matcher.py',
   'PYMODULE'),
  ('lib2to3.btm_utils',
   '/usr/lib64/python3.6/lib2to3/btm_utils.py',
   'PYMODULE'),
  ('lib2to3.pgen2.grammar',
   '/usr/lib64/python3.6/lib2to3/pgen2/grammar.py',
   'PYMODULE'),
  ('lib2to3.pygram', '/usr/lib64/python3.6/lib2to3/pygram.py', 'PYMODULE'),
  ('lib2to3.pytree', '/usr/lib64/python3.6/lib2to3/pytree.py', 'PYMODULE'),
  ('lib2to3', '/usr/lib64/python3.6/lib2to3/__init__.py', 'PYMODULE'),
  ('lib2to3.patcomp', '/usr/lib64/python3.6/lib2to3/patcomp.py', 'PYMODULE'),
  ('lib2to3.pgen2.parse',
   '/usr/lib64/python3.6/lib2to3/pgen2/parse.py',
   'PYMODULE'),
  ('lib2to3.pgen2.literals',
   '/usr/lib64/python3.6/lib2to3/pgen2/literals.py',
   'PYMODULE'),
  ('lib2to3.fixer_util',
   '/usr/lib64/python3.6/lib2to3/fixer_util.py',
   'PYMODULE'),
  ('lib2to3.pgen2.token',
   '/usr/lib64/python3.6/lib2to3/pgen2/token.py',
   'PYMODULE'),
  ('lib2to3.pgen2.tokenize',
   '/usr/lib64/python3.6/lib2to3/pgen2/tokenize.py',
   'PYMODULE'),
  ('lib2to3.pgen2.driver',
   '/usr/lib64/python3.6/lib2to3/pgen2/driver.py',
   'PYMODULE'),
  ('lib2to3.pgen2.pgen',
   '/usr/lib64/python3.6/lib2to3/pgen2/pgen.py',
   'PYMODULE'),
  ('lib2to3.pgen2',
   '/usr/lib64/python3.6/lib2to3/pgen2/__init__.py',
   'PYMODULE'),
  ('distutils.sysconfig',
   '/usr/lib64/python3.6/distutils/sysconfig.py',
   'PYMODULE'),
  ('distutils.text_file',
   '/usr/lib64/python3.6/distutils/text_file.py',
   'PYMODULE'),
  ('pkg_resources.py31compat',
   '/home/maxone/venvs/controller/lib64/python3.6/site-packages/pkg_resources/py31compat.py',
   'PYMODULE'),
  ('pkg_resources.extern',
   '/home/maxone/venvs/controller/lib64/python3.6/site-packages/pkg_resources/extern/__init__.py',
   'PYMODULE'),
  ('imp', '/usr/lib64/python3.6/imp.py', 'PYMODULE'),
  ('stringprep', '/usr/lib64/python3.6/stringprep.py', 'PYMODULE'),
  ('tracemalloc', '/usr/lib64/python3.6/tracemalloc.py', 'PYMODULE'),
  ('os', '/usr/lib64/python3.6/os.py', 'PYMODULE'),
  ('ntpath', '/usr/lib64/python3.6/ntpath.py', 'PYMODULE'),
  ('keyboard',
   '/home/maxone/venvs/controller/lib64/python3.6/site-packages/keyboard/__init__.py',
   'PYMODULE'),
  ('keyboard._canonical_names',
   '/home/maxone/venvs/controller/lib64/python3.6/site-packages/keyboard/_canonical_names.py',
   'PYMODULE'),
  ('keyboard._generic',
   '/home/maxone/venvs/controller/lib64/python3.6/site-packages/keyboard/_generic.py',
   'PYMODULE'),
  ('keyboard._keyboard_event',
   '/home/maxone/venvs/controller/lib64/python3.6/site-packages/keyboard/_keyboard_event.py',
   'PYMODULE'),
  ('json', '/usr/lib64/python3.6/json/__init__.py', 'PYMODULE'),
  ('json.encoder', '/usr/lib64/python3.6/json/encoder.py', 'PYMODULE'),
  ('json.decoder', '/usr/lib64/python3.6/json/decoder.py', 'PYMODULE'),
  ('json.scanner', '/usr/lib64/python3.6/json/scanner.py', 'PYMODULE'),
  ('keyboard._darwinkeyboard',
   '/home/maxone/venvs/controller/lib64/python3.6/site-packages/keyboard/_darwinkeyboard.py',
   'PYMODULE'),
  ('keyboard._nixkeyboard',
   '/home/maxone/venvs/controller/lib64/python3.6/site-packages/keyboard/_nixkeyboard.py',
   'PYMODULE'),
  ('keyboard._nixcommon',
   '/home/maxone/venvs/controller/lib64/python3.6/site-packages/keyboard/_nixcommon.py',
   'PYMODULE'),
  ('keyboard._winkeyboard',
   '/home/maxone/venvs/controller/lib64/python3.6/site-packages/keyboard/_winkeyboard.py',
   'PYMODULE'),
  ('serial.tools.list_ports',
   '/home/maxone/venvs/controller/lib64/python3.6/site-packages/serial/tools/list_ports.py',
   'PYMODULE'),
  ('serial.tools',
   '/home/maxone/venvs/controller/lib64/python3.6/site-packages/serial/tools/__init__.py',
   'PYMODULE'),
  ('serial.tools.list_ports_common',
   '/home/maxone/venvs/controller/lib64/python3.6/site-packages/serial/tools/list_ports_common.py',
   'PYMODULE'),
  ('serial',
   '/home/maxone/venvs/controller/lib64/python3.6/site-packages/serial/__init__.py',
   'PYMODULE'),
  ('serial.serialjava',
   '/home/maxone/venvs/controller/lib64/python3.6/site-packages/serial/serialjava.py',
   'PYMODULE'),
  ('serial.serialposix',
   '/home/maxone/venvs/controller/lib64/python3.6/site-packages/serial/serialposix.py',
   'PYMODULE'),
  ('serial.serialwin32',
   '/home/maxone/venvs/controller/lib64/python3.6/site-packages/serial/serialwin32.py',
   'PYMODULE'),
  ('serial.win32',
   '/home/maxone/venvs/controller/lib64/python3.6/site-packages/serial/win32.py',
   'PYMODULE'),
  ('serial.serialcli',
   '/home/maxone/venvs/controller/lib64/python3.6/site-packages/serial/serialcli.py',
   'PYMODULE'),
  ('serial.serialutil',
   '/home/maxone/venvs/controller/lib64/python3.6/site-packages/serial/serialutil.py',
   'PYMODULE'),
  ('serial.tools.list_ports_posix',
   '/home/maxone/venvs/controller/lib64/python3.6/site-packages/serial/tools/list_ports_posix.py',
   'PYMODULE'),
  ('serial.tools.list_ports_osx',
   '/home/maxone/venvs/controller/lib64/python3.6/site-packages/serial/tools/list_ports_osx.py',
   'PYMODULE'),
  ('serial.tools.list_ports_linux',
   '/home/maxone/venvs/controller/lib64/python3.6/site-packages/serial/tools/list_ports_linux.py',
   'PYMODULE'),
  ('serial.tools.list_ports_windows',
   '/home/maxone/venvs/controller/lib64/python3.6/site-packages/serial/tools/list_ports_windows.py',
   'PYMODULE'),
  ('Arduino',
   '/home/maxone/venvs/controller/lib64/python3.6/site-packages/Arduino/__init__.py',
   'PYMODULE'),
  ('Arduino.arduino',
   '/home/maxone/venvs/controller/lib64/python3.6/site-packages/Arduino/arduino.py',
   'PYMODULE'),
  ('pyqtgraph.configfile',
   '/home/maxone/venvs/controller/lib64/python3.6/site-packages/pyqtgraph/configfile.py',
   'PYMODULE'),
  ('pyqtgraph.colormap',
   '/home/maxone/venvs/controller/lib64/python3.6/site-packages/pyqtgraph/colormap.py',
   'PYMODULE'),
  ('pyqtgraph.functions',
   '/home/maxone/venvs/controller/lib64/python3.6/site-packages/pyqtgraph/functions.py',
   'PYMODULE'),
  ('numpy.linalg',
   '/home/maxone/venvs/controller/lib64/python3.6/site-packages/numpy/linalg/__init__.py',
   'PYMODULE'),
  ('numpy._pytesttester',
   '/home/maxone/venvs/controller/lib64/python3.6/site-packages/numpy/_pytesttester.py',
   'PYMODULE'),
  ('numpy.testing',
   '/home/maxone/venvs/controller/lib64/python3.6/site-packages/numpy/testing/__init__.py',
   'PYMODULE'),
  ('numpy.testing._private.nosetester',
   '/home/maxone/venvs/controller/lib64/python3.6/site-packages/numpy/testing/_private/nosetester.py',
   'PYMODULE'),
  ('numpy.testing._private.noseclasses',
   '/home/maxone/venvs/controller/lib64/python3.6/site-packages/numpy/testing/_private/noseclasses.py',
   'PYMODULE'),
  ('numpy.core',
   '/home/maxone/venvs/controller/lib64/python3.6/site-packages/numpy/core/__init__.py',
   'PYMODULE'),
  ('numpy.core._dtype',
   '/home/maxone/venvs/controller/lib64/python3.6/site-packages/numpy/core/_dtype.py',
   'PYMODULE'),
  ('numpy.core._internal',
   '/home/maxone/venvs/controller/lib64/python3.6/site-packages/numpy/core/_internal.py',
   'PYMODULE'),
  ('numpy.core._dtype_ctypes',
   '/home/maxone/venvs/controller/lib64/python3.6/site-packages/numpy/core/_dtype_ctypes.py',
   'PYMODULE'),
  ('numpy.core._add_newdocs',
   '/home/maxone/venvs/controller/lib64/python3.6/site-packages/numpy/core/_add_newdocs.py',
   'PYMODULE'),
  ('numpy.core.einsumfunc',
   '/home/maxone/venvs/controller/lib64/python3.6/site-packages/numpy/core/einsumfunc.py',
   'PYMODULE'),
  ('numpy.core.getlimits',
   '/home/maxone/venvs/controller/lib64/python3.6/site-packages/numpy/core/getlimits.py',
   'PYMODULE'),
  ('numpy.core.machar',
   '/home/maxone/venvs/controller/lib64/python3.6/site-packages/numpy/core/machar.py',
   'PYMODULE'),
  ('numpy.core._ufunc_config',
   '/home/maxone/venvs/controller/lib64/python3.6/site-packages/numpy/core/_ufunc_config.py',
   'PYMODULE'),
  ('numpy.core.function_base',
   '/home/maxone/venvs/controller/lib64/python3.6/site-packages/numpy/core/function_base.py',
   'PYMODULE'),
  ('numpy.core.memmap',
   '/home/maxone/venvs/controller/lib64/python3.6/site-packages/numpy/core/memmap.py',
   'PYMODULE'),
  ('numpy.compat',
   '/home/maxone/venvs/controller/lib64/python3.6/site-packages/numpy/compat/__init__.py',
   'PYMODULE'),
  ('numpy.compat.py3k',
   '/home/maxone/venvs/controller/lib64/python3.6/site-packages/numpy/compat/py3k.py',
   'PYMODULE'),
  ('pathlib', '/usr/lib64/python3.6/pathlib.py', 'PYMODULE'),
  ('numpy.compat._inspect',
   '/home/maxone/venvs/controller/lib64/python3.6/site-packages/numpy/compat/_inspect.py',
   'PYMODULE'),
  ('numpy.core.records',
   '/home/maxone/venvs/controller/lib64/python3.6/site-packages/numpy/core/records.py',
   'PYMODULE'),
  ('numpy.core.defchararray',
   '/home/maxone/venvs/controller/lib64/python3.6/site-packages/numpy/core/defchararray.py',
   'PYMODULE'),
  ('numpy.core.arrayprint',
   '/home/maxone/venvs/controller/lib64/python3.6/site-packages/numpy/core/arrayprint.py',
   'PYMODULE'),
  ('numpy.core.shape_base',
   '/home/maxone/venvs/controller/lib64/python3.6/site-packages/numpy/core/shape_base.py',
   'PYMODULE'),
  ('numpy.core._asarray',
   '/home/maxone/venvs/controller/lib64/python3.6/site-packages/numpy/core/_asarray.py',
   'PYMODULE'),
  ('numpy.core.fromnumeric',
   '/home/maxone/venvs/controller/lib64/python3.6/site-packages/numpy/core/fromnumeric.py',
   'PYMODULE'),
  ('numpy.core._methods',
   '/home/maxone/venvs/controller/lib64/python3.6/site-packages/numpy/core/_methods.py',
   'PYMODULE'),
  ('numpy._globals',
   '/home/maxone/venvs/controller/lib64/python3.6/site-packages/numpy/_globals.py',
   'PYMODULE'),
  ('numpy.core._exceptions',
   '/home/maxone/venvs/controller/lib64/python3.6/site-packages/numpy/core/_exceptions.py',
   'PYMODULE'),
  ('numpy.core.numeric',
   '/home/maxone/venvs/controller/lib64/python3.6/site-packages/numpy/core/numeric.py',
   'PYMODULE'),
  ('numpy.core.numerictypes',
   '/home/maxone/venvs/controller/lib64/python3.6/site-packages/numpy/core/numerictypes.py',
   'PYMODULE'),
  ('numpy.core._type_aliases',
   '/home/maxone/venvs/controller/lib64/python3.6/site-packages/numpy/core/_type_aliases.py',
   'PYMODULE'),
  ('numpy.core._string_helpers',
   '/home/maxone/venvs/controller/lib64/python3.6/site-packages/numpy/core/_string_helpers.py',
   'PYMODULE'),
  ('numpy.core.umath',
   '/home/maxone/venvs/controller/lib64/python3.6/site-packages/numpy/core/umath.py',
   'PYMODULE'),
  ('numpy.core.multiarray',
   '/home/maxone/venvs/controller/lib64/python3.6/site-packages/numpy/core/multiarray.py',
   'PYMODULE'),
  ('numpy.core.overrides',
   '/home/maxone/venvs/controller/lib64/python3.6/site-packages/numpy/core/overrides.py',
   'PYMODULE'),
  ('numpy.version',
   '/home/maxone/venvs/controller/lib64/python3.6/site-packages/numpy/version.py',
   'PYMODULE'),
  ('numpy.testing._private.decorators',
   '/home/maxone/venvs/controller/lib64/python3.6/site-packages/numpy/testing/_private/decorators.py',
   'PYMODULE'),
  ('numpy.testing._private.parameterized',
   '/home/maxone/venvs/controller/lib64/python3.6/site-packages/numpy/testing/_private/parameterized.py',
   'PYMODULE'),
  ('numpy.testing._private',
   '/home/maxone/venvs/controller/lib64/python3.6/site-packages/numpy/testing/_private/__init__.py',
   'PYMODULE'),
  ('numpy.testing._private.utils',
   '/home/maxone/venvs/controller/lib64/python3.6/site-packages/numpy/testing/_private/utils.py',
   'PYMODULE'),
  ('numpy.lib',
   '/home/maxone/venvs/controller/lib64/python3.6/site-packages/numpy/lib/__init__.py',
   'PYMODULE'),
  ('numpy.lib._version',
   '/home/maxone/venvs/controller/lib64/python3.6/site-packages/numpy/lib/_version.py',
   'PYMODULE'),
  ('numpy.lib.arraypad',
   '/home/maxone/venvs/controller/lib64/python3.6/site-packages/numpy/lib/arraypad.py',
   'PYMODULE'),
  ('numpy.lib.arrayterator',
   '/home/maxone/venvs/controller/lib64/python3.6/site-packages/numpy/lib/arrayterator.py',
   'PYMODULE'),
  ('numpy.lib.financial',
   '/home/maxone/venvs/controller/lib64/python3.6/site-packages/numpy/lib/financial.py',
   'PYMODULE'),
  ('numpy.lib.npyio',
   '/home/maxone/venvs/controller/lib64/python3.6/site-packages/numpy/lib/npyio.py',
   'PYMODULE'),
  ('numpy.ma.mrecords',
   '/home/maxone/venvs/controller/lib64/python3.6/site-packages/numpy/ma/mrecords.py',
   'PYMODULE'),
  ('numpy.ma',
   '/home/maxone/venvs/controller/lib64/python3.6/site-packages/numpy/ma/__init__.py',
   'PYMODULE'),
  ('numpy.ma.extras',
   '/home/maxone/venvs/controller/lib64/python3.6/site-packages/numpy/ma/extras.py',
   'PYMODULE'),
  ('numpy.ma.core',
   '/home/maxone/venvs/controller/lib64/python3.6/site-packages/numpy/ma/core.py',
   'PYMODULE'),
  ('numpy.lib._iotools',
   '/home/maxone/venvs/controller/lib64/python3.6/site-packages/numpy/lib/_iotools.py',
   'PYMODULE'),
  ('numpy.lib._datasource',
   '/home/maxone/venvs/controller/lib64/python3.6/site-packages/numpy/lib/_datasource.py',
   'PYMODULE'),
  ('numpy.lib.format',
   '/home/maxone/venvs/controller/lib64/python3.6/site-packages/numpy/lib/format.py',
   'PYMODULE'),
  ('numpy.lib.arraysetops',
   '/home/maxone/venvs/controller/lib64/python3.6/site-packages/numpy/lib/arraysetops.py',
   'PYMODULE'),
  ('numpy.lib.utils',
   '/home/maxone/venvs/controller/lib64/python3.6/site-packages/numpy/lib/utils.py',
   'PYMODULE'),
  ('numpy.lib.polynomial',
   '/home/maxone/venvs/controller/lib64/python3.6/site-packages/numpy/lib/polynomial.py',
   'PYMODULE'),
  ('numpy.lib.histograms',
   '/home/maxone/venvs/controller/lib64/python3.6/site-packages/numpy/lib/histograms.py',
   'PYMODULE'),
  ('numpy.lib.ufunclike',
   '/home/maxone/venvs/controller/lib64/python3.6/site-packages/numpy/lib/ufunclike.py',
   'PYMODULE'),
  ('numpy.lib.twodim_base',
   '/home/maxone/venvs/controller/lib64/python3.6/site-packages/numpy/lib/twodim_base.py',
   'PYMODULE'),
  ('numpy.lib.stride_tricks',
   '/home/maxone/venvs/controller/lib64/python3.6/site-packages/numpy/lib/stride_tricks.py',
   'PYMODULE'),
  ('numpy.lib.shape_base',
   '/home/maxone/venvs/controller/lib64/python3.6/site-packages/numpy/lib/shape_base.py',
   'PYMODULE'),
  ('numpy.matrixlib.defmatrix',
   '/home/maxone/venvs/controller/lib64/python3.6/site-packages/numpy/matrixlib/defmatrix.py',
   'PYMODULE'),
  ('numpy.matrixlib',
   '/home/maxone/venvs/controller/lib64/python3.6/site-packages/numpy/matrixlib/__init__.py',
   'PYMODULE'),
  ('numpy.dual',
   '/home/maxone/venvs/controller/lib64/python3.6/site-packages/numpy/dual.py',
   'PYMODULE'),
  ('numpy.fft',
   '/home/maxone/venvs/controller/lib64/python3.6/site-packages/numpy/fft/__init__.py',
   'PYMODULE'),
  ('numpy.fft.helper',
   '/home/maxone/venvs/controller/lib64/python3.6/site-packages/numpy/fft/helper.py',
   'PYMODULE'),
  ('numpy.fft._pocketfft',
   '/home/maxone/venvs/controller/lib64/python3.6/site-packages/numpy/fft/_pocketfft.py',
   'PYMODULE'),
  ('numpy.lib.nanfunctions',
   '/home/maxone/venvs/controller/lib64/python3.6/site-packages/numpy/lib/nanfunctions.py',
   'PYMODULE'),
  ('numpy.lib.function_base',
   '/home/maxone/venvs/controller/lib64/python3.6/site-packages/numpy/lib/function_base.py',
   'PYMODULE'),
  ('numpy.lib.index_tricks',
   '/home/maxone/venvs/controller/lib64/python3.6/site-packages/numpy/lib/index_tricks.py',
   'PYMODULE'),
  ('numpy.lib.type_check',
   '/home/maxone/venvs/controller/lib64/python3.6/site-packages/numpy/lib/type_check.py',
   'PYMODULE'),
  ('numpy.lib.scimath',
   '/home/maxone/venvs/controller/lib64/python3.6/site-packages/numpy/lib/scimath.py',
   'PYMODULE'),
  ('numpy.lib.mixins',
   '/home/maxone/venvs/controller/lib64/python3.6/site-packages/numpy/lib/mixins.py',
   'PYMODULE'),
  ('numpy.distutils.cpuinfo',
   '/home/maxone/venvs/controller/lib64/python3.6/site-packages/numpy/distutils/cpuinfo.py',
   'PYMODULE'),
  ('numpy.distutils',
   '/home/maxone/venvs/controller/lib64/python3.6/site-packages/numpy/distutils/__init__.py',
   'PYMODULE'),
  ('numpy.distutils.fcompiler',
   '/home/maxone/venvs/controller/lib64/python3.6/site-packages/numpy/distutils/fcompiler/__init__.py',
   'PYMODULE'),
  ('numpy.distutils.command.config_compiler',
   '/home/maxone/venvs/controller/lib64/python3.6/site-packages/numpy/distutils/command/config_compiler.py',
   'PYMODULE'),
  ('numpy.distutils.command',
   '/home/maxone/venvs/controller/lib64/python3.6/site-packages/numpy/distutils/command/__init__.py',
   'PYMODULE'),
  ('numpy.distutils.command.egg_info',
   '/home/maxone/venvs/controller/lib64/python3.6/site-packages/numpy/distutils/command/egg_info.py',
   'PYMODULE'),
  ('setuptools.command.egg_info',
   '/home/maxone/venvs/controller/lib64/python3.6/site-packages/setuptools/command/egg_info.py',
   'PYMODULE'),
  ('setuptools.glob',
   '/home/maxone/venvs/controller/lib64/python3.6/site-packages/setuptools/glob.py',
   'PYMODULE'),
  ('setuptools.unicode_utils',
   '/home/maxone/venvs/controller/lib64/python3.6/site-packages/setuptools/unicode_utils.py',
   'PYMODULE'),
  ('setuptools.command.bdist_egg',
   '/home/maxone/venvs/controller/lib64/python3.6/site-packages/setuptools/command/bdist_egg.py',
   'PYMODULE'),
  ('setuptools.extension',
   '/home/maxone/venvs/controller/lib64/python3.6/site-packages/setuptools/extension.py',
   'PYMODULE'),
  ('setuptools.monkey',
   '/home/maxone/venvs/controller/lib64/python3.6/site-packages/setuptools/monkey.py',
   'PYMODULE'),
  ('distutils.extension',
   '/usr/lib64/python3.6/distutils/extension.py',
   'PYMODULE'),
  ('setuptools.command',
   '/home/maxone/venvs/controller/lib64/python3.6/site-packages/setuptools/command/__init__.py',
   'PYMODULE'),
  ('setuptools.command.install_scripts',
   '/home/maxone/venvs/controller/lib64/python3.6/site-packages/setuptools/command/install_scripts.py',
   'PYMODULE'),
  ('setuptools.command.easy_install',
   '/home/maxone/venvs/controller/lib64/python3.6/site-packages/setuptools/command/easy_install.py',
   'PYMODULE'),
  ('setuptools.dist',
   '/home/maxone/venvs/controller/lib64/python3.6/site-packages/setuptools/dist.py',
   'PYMODULE'),
  ('setuptools.py36compat',
   '/home/maxone/venvs/controller/lib64/python3.6/site-packages/setuptools/py36compat.py',
   'PYMODULE'),
  ('configparser', '/usr/lib64/python3.6/configparser.py', 'PYMODULE'),
  ('setuptools.config',
   '/home/maxone/venvs/controller/lib64/python3.6/site-packages/setuptools/config.py',
   'PYMODULE'),
  ('setuptools.windows_support',
   '/home/maxone/venvs/controller/lib64/python3.6/site-packages/setuptools/windows_support.py',
   'PYMODULE'),
  ('setuptools.depends',
   '/home/maxone/venvs/controller/lib64/python3.6/site-packages/setuptools/depends.py',
   'PYMODULE'),
  ('setuptools.py33compat',
   '/home/maxone/venvs/controller/lib64/python3.6/site-packages/setuptools/py33compat.py',
   'PYMODULE'),
  ('html.parser', '/usr/lib64/python3.6/html/parser.py', 'PYMODULE'),
  ('_markupbase', '/usr/lib64/python3.6/_markupbase.py', 'PYMODULE'),
  ('distutils.version',
   '/usr/lib64/python3.6/distutils/version.py',
   'PYMODULE'),
  ('distutils.cmd', '/usr/lib64/python3.6/distutils/cmd.py', 'PYMODULE'),
  ('setuptools.wheel',
   '/home/maxone/venvs/controller/lib64/python3.6/site-packages/setuptools/wheel.py',
   'PYMODULE'),
  ('setuptools.pep425tags',
   '/home/maxone/venvs/controller/lib64/python3.6/site-packages/setuptools/pep425tags.py',
   'PYMODULE'),
  ('setuptools.glibc',
   '/home/maxone/venvs/controller/lib64/python3.6/site-packages/setuptools/glibc.py',
   'PYMODULE'),
  ('setuptools.package_index',
   '/home/maxone/venvs/controller/lib64/python3.6/site-packages/setuptools/package_index.py',
   'PYMODULE'),
  ('setuptools.ssl_support',
   '/home/maxone/venvs/controller/lib64/python3.6/site-packages/setuptools/ssl_support.py',
   'PYMODULE'),
  ('setuptools.archive_util',
   '/home/maxone/venvs/controller/lib64/python3.6/site-packages/setuptools/archive_util.py',
   'PYMODULE'),
  ('setuptools.py27compat',
   '/home/maxone/venvs/controller/lib64/python3.6/site-packages/setuptools/py27compat.py',
   'PYMODULE'),
  ('setuptools.py31compat',
   '/home/maxone/venvs/controller/lib64/python3.6/site-packages/setuptools/py31compat.py',
   'PYMODULE'),
  ('setuptools.sandbox',
   '/home/maxone/venvs/controller/lib64/python3.6/site-packages/setuptools/sandbox.py',
   'PYMODULE'),
  ('site',
   '/home/maxone/venvs/controller/lib64/python3.6/site-packages/PyInstaller/fake-modules/site.py',
   'PYMODULE'),
  ('distutils.command.build_scripts',
   '/usr/lib64/python3.6/distutils/command/build_scripts.py',
   'PYMODULE'),
  ('distutils.command',
   '/usr/lib64/python3.6/distutils/command/__init__.py',
   'PYMODULE'),
  ('distutils.command.install',
   '/usr/lib64/python3.6/distutils/command/install.py',
   'PYMODULE'),
  ('distutils.command.install_scripts',
   '/usr/lib64/python3.6/distutils/command/install_scripts.py',
   'PYMODULE'),
  ('distutils.command.bdist',
   '/usr/lib64/python3.6/distutils/command/bdist.py',
   'PYMODULE'),
  ('setuptools.command.setopt',
   '/home/maxone/venvs/controller/lib64/python3.6/site-packages/setuptools/command/setopt.py',
   'PYMODULE'),
  ('setuptools.command.sdist',
   '/home/maxone/venvs/controller/lib64/python3.6/site-packages/setuptools/command/sdist.py',
   'PYMODULE'),
  ('setuptools.command.py36compat',
   '/home/maxone/venvs/controller/lib64/python3.6/site-packages/setuptools/command/py36compat.py',
   'PYMODULE'),
  ('distutils.command.sdist',
   '/usr/lib64/python3.6/distutils/command/sdist.py',
   'PYMODULE'),
  ('setuptools',
   '/home/maxone/venvs/controller/lib64/python3.6/site-packages/setuptools/__init__.py',
   'PYMODULE'),
  ('setuptools._vendor.packaging.requirements',
   '/home/maxone/venvs/controller/lib64/python3.6/site-packages/setuptools/_vendor/packaging/requirements.py',
   'PYMODULE'),
  ('setuptools._vendor.pyparsing',
   '/home/maxone/venvs/controller/lib64/python3.6/site-packages/setuptools/_vendor/pyparsing.py',
   'PYMODULE'),
  ('setuptools._vendor',
   '/home/maxone/venvs/controller/lib64/python3.6/site-packages/setuptools/_vendor/__init__.py',
   'PYMODULE'),
  ('setuptools._vendor.packaging',
   '/home/maxone/venvs/controller/lib64/python3.6/site-packages/setuptools/_vendor/packaging/__init__.py',
   'PYMODULE'),
  ('setuptools._vendor.six',
   '/home/maxone/venvs/controller/lib64/python3.6/site-packages/setuptools/_vendor/six.py',
   'PYMODULE'),
  ('setuptools._vendor.packaging.version',
   '/home/maxone/venvs/controller/lib64/python3.6/site-packages/setuptools/_vendor/packaging/version.py',
   'PYMODULE'),
  ('setuptools._vendor.packaging.markers',
   '/home/maxone/venvs/controller/lib64/python3.6/site-packages/setuptools/_vendor/packaging/markers.py',
   'PYMODULE'),
  ('setuptools._vendor.packaging._compat',
   '/home/maxone/venvs/controller/lib64/python3.6/site-packages/setuptools/_vendor/packaging/_compat.py',
   'PYMODULE'),
  ('setuptools._vendor.packaging.utils',
   '/home/maxone/venvs/controller/lib64/python3.6/site-packages/setuptools/_vendor/packaging/utils.py',
   'PYMODULE'),
  ('setuptools._vendor.packaging.specifiers',
   '/home/maxone/venvs/controller/lib64/python3.6/site-packages/setuptools/_vendor/packaging/specifiers.py',
   'PYMODULE'),
  ('setuptools._vendor.packaging.__about__',
   '/home/maxone/venvs/controller/lib64/python3.6/site-packages/setuptools/_vendor/packaging/__about__.py',
   'PYMODULE'),
  ('setuptools._vendor.packaging._structures',
   '/home/maxone/venvs/controller/lib64/python3.6/site-packages/setuptools/_vendor/packaging/_structures.py',
   'PYMODULE'),
  ('setuptools.msvc',
   '/home/maxone/venvs/controller/lib64/python3.6/site-packages/setuptools/msvc.py',
   'PYMODULE'),
  ('distutils.msvc9compiler',
   '/usr/lib64/python3.6/distutils/msvc9compiler.py',
   'PYMODULE'),
  ('distutils.command.build_ext',
   '/usr/lib64/python3.6/distutils/command/build_ext.py',
   'PYMODULE'),
  ('distutils._msvccompiler',
   '/usr/lib64/python3.6/distutils/_msvccompiler.py',
   'PYMODULE'),
  ('concurrent.futures',
   '/usr/lib64/python3.6/concurrent/futures/__init__.py',
   'PYMODULE'),
  ('concurrent.futures.thread',
   '/usr/lib64/python3.6/concurrent/futures/thread.py',
   'PYMODULE'),
  ('concurrent.futures.process',
   '/usr/lib64/python3.6/concurrent/futures/process.py',
   'PYMODULE'),
  ('concurrent.futures._base',
   '/usr/lib64/python3.6/concurrent/futures/_base.py',
   'PYMODULE'),
  ('concurrent', '/usr/lib64/python3.6/concurrent/__init__.py', 'PYMODULE'),
  ('setuptools.namespaces',
   '/home/maxone/venvs/controller/lib64/python3.6/site-packages/setuptools/namespaces.py',
   'PYMODULE'),
  ('setuptools.version',
   '/home/maxone/venvs/controller/lib64/python3.6/site-packages/setuptools/version.py',
   'PYMODULE'),
  ('setuptools.extern',
   '/home/maxone/venvs/controller/lib64/python3.6/site-packages/setuptools/extern/__init__.py',
   'PYMODULE'),
  ('numpy.distutils.command.develop',
   '/home/maxone/venvs/controller/lib64/python3.6/site-packages/numpy/distutils/command/develop.py',
   'PYMODULE'),
  ('setuptools.command.develop',
   '/home/maxone/venvs/controller/lib64/python3.6/site-packages/setuptools/command/develop.py',
   'PYMODULE'),
  ('numpy.distutils.command.install_clib',
   '/home/maxone/venvs/controller/lib64/python3.6/site-packages/numpy/distutils/command/install_clib.py',
   'PYMODULE'),
  ('numpy.distutils.command.bdist_rpm',
   '/home/maxone/venvs/controller/lib64/python3.6/site-packages/numpy/distutils/command/bdist_rpm.py',
   'PYMODULE'),
  ('distutils.command.bdist_rpm',
   '/usr/lib64/python3.6/distutils/command/bdist_rpm.py',
   'PYMODULE'),
  ('setuptools.command.bdist_rpm',
   '/home/maxone/venvs/controller/lib64/python3.6/site-packages/setuptools/command/bdist_rpm.py',
   'PYMODULE'),
  ('numpy.distutils.command.install',
   '/home/maxone/venvs/controller/lib64/python3.6/site-packages/numpy/distutils/command/install.py',
   'PYMODULE'),
  ('setuptools.command.install',
   '/home/maxone/venvs/controller/lib64/python3.6/site-packages/setuptools/command/install.py',
   'PYMODULE'),
  ('numpy.distutils.command.install_headers',
   '/home/maxone/venvs/controller/lib64/python3.6/site-packages/numpy/distutils/command/install_headers.py',
   'PYMODULE'),
  ('distutils.command.install_headers',
   '/usr/lib64/python3.6/distutils/command/install_headers.py',
   'PYMODULE'),
  ('numpy.distutils.command.install_data',
   '/home/maxone/venvs/controller/lib64/python3.6/site-packages/numpy/distutils/command/install_data.py',
   'PYMODULE'),
  ('distutils.command.install_data',
   '/usr/lib64/python3.6/distutils/command/install_data.py',
   'PYMODULE'),
  ('numpy.distutils.command.sdist',
   '/home/maxone/venvs/controller/lib64/python3.6/site-packages/numpy/distutils/command/sdist.py',
   'PYMODULE'),
  ('numpy.distutils.command.build_scripts',
   '/home/maxone/venvs/controller/lib64/python3.6/site-packages/numpy/distutils/command/build_scripts.py',
   'PYMODULE'),
  ('numpy.distutils.command.build_clib',
   '/home/maxone/venvs/controller/lib64/python3.6/site-packages/numpy/distutils/command/build_clib.py',
   'PYMODULE'),
  ('distutils.command.build_clib',
   '/usr/lib64/python3.6/distutils/command/build_clib.py',
   'PYMODULE'),
  ('numpy.distutils.command.build_ext',
   '/home/maxone/venvs/controller/lib64/python3.6/site-packages/numpy/distutils/command/build_ext.py',
   'PYMODULE'),
  ('numpy.distutils.system_info',
   '/home/maxone/venvs/controller/lib64/python3.6/site-packages/numpy/distutils/system_info.py',
   'PYMODULE'),
  ('numpy.f2py',
   '/home/maxone/venvs/controller/lib64/python3.6/site-packages/numpy/f2py/__init__.py',
   'PYMODULE'),
  ('numpy.f2py.diagnose',
   '/home/maxone/venvs/controller/lib64/python3.6/site-packages/numpy/f2py/diagnose.py',
   'PYMODULE'),
  ('numpy.f2py.f2py_testing',
   '/home/maxone/venvs/controller/lib64/python3.6/site-packages/numpy/f2py/f2py_testing.py',
   'PYMODULE'),
  ('numpy.f2py.f2py2e',
   '/home/maxone/venvs/controller/lib64/python3.6/site-packages/numpy/f2py/f2py2e.py',
   'PYMODULE'),
  ('numpy.distutils.command.build_src',
   '/home/maxone/venvs/controller/lib64/python3.6/site-packages/numpy/distutils/command/build_src.py',
   'PYMODULE'),
  ('numpy.distutils.conv_template',
   '/home/maxone/venvs/controller/lib64/python3.6/site-packages/numpy/distutils/conv_template.py',
   'PYMODULE'),
  ('numpy.distutils.from_template',
   '/home/maxone/venvs/controller/lib64/python3.6/site-packages/numpy/distutils/from_template.py',
   'PYMODULE'),
  ('numpy.f2py.auxfuncs',
   '/home/maxone/venvs/controller/lib64/python3.6/site-packages/numpy/f2py/auxfuncs.py',
   'PYMODULE'),
  ('numpy.f2py.f90mod_rules',
   '/home/maxone/venvs/controller/lib64/python3.6/site-packages/numpy/f2py/f90mod_rules.py',
   'PYMODULE'),
  ('numpy.f2py.rules',
   '/home/maxone/venvs/controller/lib64/python3.6/site-packages/numpy/f2py/rules.py',
   'PYMODULE'),
  ('numpy.f2py.use_rules',
   '/home/maxone/venvs/controller/lib64/python3.6/site-packages/numpy/f2py/use_rules.py',
   'PYMODULE'),
  ('numpy.f2py.common_rules',
   '/home/maxone/venvs/controller/lib64/python3.6/site-packages/numpy/f2py/common_rules.py',
   'PYMODULE'),
  ('numpy.f2py.func2subr',
   '/home/maxone/venvs/controller/lib64/python3.6/site-packages/numpy/f2py/func2subr.py',
   'PYMODULE'),
  ('numpy.f2py.crackfortran',
   '/home/maxone/venvs/controller/lib64/python3.6/site-packages/numpy/f2py/crackfortran.py',
   'PYMODULE'),
  ('fileinput', '/usr/lib64/python3.6/fileinput.py', 'PYMODULE'),
  ('numpy.f2py.cb_rules',
   '/home/maxone/venvs/controller/lib64/python3.6/site-packages/numpy/f2py/cb_rules.py',
   'PYMODULE'),
  ('numpy.f2py.capi_maps',
   '/home/maxone/venvs/controller/lib64/python3.6/site-packages/numpy/f2py/capi_maps.py',
   'PYMODULE'),
  ('numpy.f2py.cfuncs',
   '/home/maxone/venvs/controller/lib64/python3.6/site-packages/numpy/f2py/cfuncs.py',
   'PYMODULE'),
  ('numpy.f2py.__version__',
   '/home/maxone/venvs/controller/lib64/python3.6/site-packages/numpy/f2py/__version__.py',
   'PYMODULE'),
  ('numpy.distutils.command.build_py',
   '/home/maxone/venvs/controller/lib64/python3.6/site-packages/numpy/distutils/command/build_py.py',
   'PYMODULE'),
  ('distutils.command.build_py',
   '/usr/lib64/python3.6/distutils/command/build_py.py',
   'PYMODULE'),
  ('numpy.distutils.command.build',
   '/home/maxone/venvs/controller/lib64/python3.6/site-packages/numpy/distutils/command/build.py',
   'PYMODULE'),
  ('distutils.command.build',
   '/usr/lib64/python3.6/distutils/command/build.py',
   'PYMODULE'),
  ('numpy.distutils.command.config',
   '/home/maxone/venvs/controller/lib64/python3.6/site-packages/numpy/distutils/command/config.py',
   'PYMODULE'),
  ('numpy.distutils.command.autodist',
   '/home/maxone/venvs/controller/lib64/python3.6/site-packages/numpy/distutils/command/autodist.py',
   'PYMODULE'),
  ('numpy.distutils.mingw32ccompiler',
   '/home/maxone/venvs/controller/lib64/python3.6/site-packages/numpy/distutils/mingw32ccompiler.py',
   'PYMODULE'),
  ('distutils.msvccompiler',
   '/usr/lib64/python3.6/distutils/msvccompiler.py',
   'PYMODULE'),
  ('distutils.unixccompiler',
   '/usr/lib64/python3.6/distutils/unixccompiler.py',
   'PYMODULE'),
  ('distutils.cygwinccompiler',
   '/usr/lib64/python3.6/distutils/cygwinccompiler.py',
   'PYMODULE'),
  ('distutils.command.config',
   '/usr/lib64/python3.6/distutils/command/config.py',
   'PYMODULE'),
  ('distutils.core', '/usr/lib64/python3.6/distutils/core.py', 'PYMODULE'),
  ('distutils.config', '/usr/lib64/python3.6/distutils/config.py', 'PYMODULE'),
  ('cgi', '/usr/lib64/python3.6/cgi.py', 'PYMODULE'),
  ('distutils.dist', '/usr/lib64/python3.6/distutils/dist.py', 'PYMODULE'),
  ('distutils.versionpredicate',
   '/usr/lib64/python3.6/distutils/versionpredicate.py',
   'PYMODULE'),
  ('numpy.distutils.core',
   '/home/maxone/venvs/controller/lib64/python3.6/site-packages/numpy/distutils/core.py',
   'PYMODULE'),
  ('numpy.distutils.numpy_distribution',
   '/home/maxone/venvs/controller/lib64/python3.6/site-packages/numpy/distutils/numpy_distribution.py',
   'PYMODULE'),
  ('numpy.distutils.extension',
   '/home/maxone/venvs/controller/lib64/python3.6/site-packages/numpy/distutils/extension.py',
   'PYMODULE'),
  ('numpy.distutils.fcompiler.environment',
   '/home/maxone/venvs/controller/lib64/python3.6/site-packages/numpy/distutils/fcompiler/environment.py',
   'PYMODULE'),
  ('numpy.distutils.exec_command',
   '/home/maxone/venvs/controller/lib64/python3.6/site-packages/numpy/distutils/exec_command.py',
   'PYMODULE'),
  ('numpy.distutils.misc_util',
   '/home/maxone/venvs/controller/lib64/python3.6/site-packages/numpy/distutils/misc_util.py',
   'PYMODULE'),
  ('curses', '/usr/lib64/python3.6/curses/__init__.py', 'PYMODULE'),
  ('curses.has_key', '/usr/lib64/python3.6/curses/has_key.py', 'PYMODULE'),
  ('numpy.distutils.__config__',
   '/home/maxone/venvs/controller/lib64/python3.6/site-packages/numpy/distutils/__config__.py',
   'PYMODULE'),
  ('numpy.distutils.npy_pkg_config',
   '/home/maxone/venvs/controller/lib64/python3.6/site-packages/numpy/distutils/npy_pkg_config.py',
   'PYMODULE'),
  ('numpy.distutils.unixccompiler',
   '/home/maxone/venvs/controller/lib64/python3.6/site-packages/numpy/distutils/unixccompiler.py',
   'PYMODULE'),
  ('numpy.distutils.ccompiler',
   '/home/maxone/venvs/controller/lib64/python3.6/site-packages/numpy/distutils/ccompiler.py',
   'PYMODULE'),
  ('numpy.distutils._shell_utils',
   '/home/maxone/venvs/controller/lib64/python3.6/site-packages/numpy/distutils/_shell_utils.py',
   'PYMODULE'),
  ('pipes', '/usr/lib64/python3.6/pipes.py', 'PYMODULE'),
  ('numpy.distutils.lib2def',
   '/home/maxone/venvs/controller/lib64/python3.6/site-packages/numpy/distutils/lib2def.py',
   'PYMODULE'),
  ('numpy.distutils.log',
   '/home/maxone/venvs/controller/lib64/python3.6/site-packages/numpy/distutils/log.py',
   'PYMODULE'),
  ('numpy.linalg.linalg',
   '/home/maxone/venvs/controller/lib64/python3.6/site-packages/numpy/linalg/linalg.py',
   'PYMODULE'),
  ('pyqtgraph.metaarray.MetaArray',
   '/home/maxone/venvs/controller/lib64/python3.6/site-packages/pyqtgraph/metaarray/MetaArray.py',
   'PYMODULE'),
  ('pyqtgraph.multiprocess',
   '/home/maxone/venvs/controller/lib64/python3.6/site-packages/pyqtgraph/multiprocess/__init__.py',
   'PYMODULE'),
  ('pyqtgraph.multiprocess.remoteproxy',
   '/home/maxone/venvs/controller/lib64/python3.6/site-packages/pyqtgraph/multiprocess/remoteproxy.py',
   'PYMODULE'),
  ('pyqtgraph.util.cprint',
   '/home/maxone/venvs/controller/lib64/python3.6/site-packages/pyqtgraph/util/cprint.py',
   'PYMODULE'),
  ('pyqtgraph.util.colorama.win32',
   '/home/maxone/venvs/controller/lib64/python3.6/site-packages/pyqtgraph/util/colorama/win32.py',
   'PYMODULE'),
  ('pyqtgraph.util.colorama',
   '/home/maxone/venvs/controller/lib64/python3.6/site-packages/pyqtgraph/util/colorama/__init__.py',
   'PYMODULE'),
  ('pyqtgraph.util.colorama.winterm',
   '/home/maxone/venvs/controller/lib64/python3.6/site-packages/pyqtgraph/util/colorama/winterm.py',
   'PYMODULE'),
  ('pyqtgraph.util',
   '/home/maxone/venvs/controller/lib64/python3.6/site-packages/pyqtgraph/util/__init__.py',
   'PYMODULE'),
  ('pyqtgraph.multiprocess.parallelizer',
   '/home/maxone/venvs/controller/lib64/python3.6/site-packages/pyqtgraph/multiprocess/parallelizer.py',
   'PYMODULE'),
  ('pyqtgraph.widgets.ProgressDialog',
   '/home/maxone/venvs/controller/lib64/python3.6/site-packages/pyqtgraph/widgets/ProgressDialog.py',
   'PYMODULE'),
  ('pyqtgraph.widgets',
   '/home/maxone/venvs/controller/lib64/python3.6/site-packages/pyqtgraph/widgets/__init__.py',
   'PYMODULE'),
  ('pyqtgraph.widgets.VerticalLabel',
   '/home/maxone/venvs/controller/lib64/python3.6/site-packages/pyqtgraph/widgets/VerticalLabel.py',
   'PYMODULE'),
  ('pyqtgraph.widgets.MatplotlibWidget',
   '/home/maxone/venvs/controller/lib64/python3.6/site-packages/pyqtgraph/widgets/MatplotlibWidget.py',
   'PYMODULE'),
  ('pyqtgraph.multiprocess.processes',
   '/home/maxone/venvs/controller/lib64/python3.6/site-packages/pyqtgraph/multiprocess/processes.py',
   'PYMODULE'),
  ('pyqtgraph.metaarray',
   '/home/maxone/venvs/controller/lib64/python3.6/site-packages/pyqtgraph/metaarray/__init__.py',
   'PYMODULE'),
  ('pyqtgraph.reload',
   '/home/maxone/venvs/controller/lib64/python3.6/site-packages/pyqtgraph/reload.py',
   'PYMODULE'),
  ('pyqtgraph.debug',
   '/home/maxone/venvs/controller/lib64/python3.6/site-packages/pyqtgraph/debug.py',
   'PYMODULE'),
  ('pyqtgraph.util.mutex',
   '/home/maxone/venvs/controller/lib64/python3.6/site-packages/pyqtgraph/util/mutex.py',
   'PYMODULE'),
  ('pyqtgraph.ptime',
   '/home/maxone/venvs/controller/lib64/python3.6/site-packages/pyqtgraph/ptime.py',
   'PYMODULE'),
  ('cProfile', '/usr/lib64/python3.6/cProfile.py', 'PYMODULE'),
  ('pstats', '/usr/lib64/python3.6/pstats.py', 'PYMODULE'),
  ('profile', '/usr/lib64/python3.6/profile.py', 'PYMODULE'),
  ('pyqtgraph.Point',
   '/home/maxone/venvs/controller/lib64/python3.6/site-packages/pyqtgraph/Point.py',
   'PYMODULE'),
  ('pyqtgraph.python2_3',
   '/home/maxone/venvs/controller/lib64/python3.6/site-packages/pyqtgraph/python2_3.py',
   'PYMODULE'),
  ('pyqtgraph.units',
   '/home/maxone/venvs/controller/lib64/python3.6/site-packages/pyqtgraph/units.py',
   'PYMODULE'),
  ('pyqtgraph.pgcollections',
   '/home/maxone/venvs/controller/lib64/python3.6/site-packages/pyqtgraph/pgcollections.py',
   'PYMODULE'),
  ('pyqtgraph.parametertree.ParameterItem',
   '/home/maxone/venvs/controller/lib64/python3.6/site-packages/pyqtgraph/parametertree/ParameterItem.py',
   'PYMODULE'),
  ('pyqtgraph.parametertree.ParameterTree',
   '/home/maxone/venvs/controller/lib64/python3.6/site-packages/pyqtgraph/parametertree/ParameterTree.py',
   'PYMODULE'),
  ('pyqtgraph.widgets.TreeWidget',
   '/home/maxone/venvs/controller/lib64/python3.6/site-packages/pyqtgraph/widgets/TreeWidget.py',
   'PYMODULE'),
  ('pyqtgraph.parametertree.Parameter',
   '/home/maxone/venvs/controller/lib64/python3.6/site-packages/pyqtgraph/parametertree/Parameter.py',
   'PYMODULE'),
  ('pyqtgraph.parametertree',
   '/home/maxone/venvs/controller/lib64/python3.6/site-packages/pyqtgraph/parametertree/__init__.py',
   'PYMODULE'),
  ('pyqtgraph.parametertree.ParameterSystem',
   '/home/maxone/venvs/controller/lib64/python3.6/site-packages/pyqtgraph/parametertree/ParameterSystem.py',
   'PYMODULE'),
  ('pyqtgraph.parametertree.SystemSolver',
   '/home/maxone/venvs/controller/lib64/python3.6/site-packages/pyqtgraph/parametertree/SystemSolver.py',
   'PYMODULE'),
  ('pyqtgraph.parametertree.parameterTypes',
   '/home/maxone/venvs/controller/lib64/python3.6/site-packages/pyqtgraph/parametertree/parameterTypes.py',
   'PYMODULE'),
  ('pyqtgraph.widgets.GradientWidget',
   '/home/maxone/venvs/controller/lib64/python3.6/site-packages/pyqtgraph/widgets/GradientWidget.py',
   'PYMODULE'),
  ('pyqtgraph.graphicsItems.GradientEditorItem',
   '/home/maxone/venvs/controller/lib64/python3.6/site-packages/pyqtgraph/graphicsItems/GradientEditorItem.py',
   'PYMODULE'),
  ('pyqtgraph.graphicsItems',
   '/home/maxone/venvs/controller/lib64/python3.6/site-packages/pyqtgraph/graphicsItems/__init__.py',
   'PYMODULE'),
  ('pyqtgraph.graphicsItems.GraphicsWidget',
   '/home/maxone/venvs/controller/lib64/python3.6/site-packages/pyqtgraph/graphicsItems/GraphicsWidget.py',
   'PYMODULE'),
  ('pyqtgraph.graphicsItems.GraphicsItem',
   '/home/maxone/venvs/controller/lib64/python3.6/site-packages/pyqtgraph/graphicsItems/GraphicsItem.py',
   'PYMODULE'),
  ('pyqtgraph.util.lru_cache',
   '/home/maxone/venvs/controller/lib64/python3.6/site-packages/pyqtgraph/util/lru_cache.py',
   'PYMODULE'),
  ('pyqtgraph.GraphicsScene.GraphicsScene',
   '/home/maxone/venvs/controller/lib64/python3.6/site-packages/pyqtgraph/GraphicsScene/GraphicsScene.py',
   'PYMODULE'),
  ('pyqtgraph.GraphicsScene.exportDialog',
   '/home/maxone/venvs/controller/lib64/python3.6/site-packages/pyqtgraph/GraphicsScene/exportDialog.py',
   'PYMODULE'),
  ('pyqtgraph.GraphicsScene.exportDialogTemplate_pyqt',
   '/home/maxone/venvs/controller/lib64/python3.6/site-packages/pyqtgraph/GraphicsScene/exportDialogTemplate_pyqt.py',
   'PYMODULE'),
  ('pyqtgraph.GraphicsScene.exportDialogTemplate_pyqt5',
   '/home/maxone/venvs/controller/lib64/python3.6/site-packages/pyqtgraph/GraphicsScene/exportDialogTemplate_pyqt5.py',
   'PYMODULE'),
  ('pyqtgraph.GraphicsScene.exportDialogTemplate_pyside2',
   '/home/maxone/venvs/controller/lib64/python3.6/site-packages/pyqtgraph/GraphicsScene/exportDialogTemplate_pyside2.py',
   'PYMODULE'),
  ('PySide2',
   '/home/maxone/venvs/controller/lib64/python3.6/site-packages/PySide2/__init__.py',
   'PYMODULE'),
  ('shiboken2',
   '/home/maxone/venvs/controller/lib64/python3.6/site-packages/shiboken2/__init__.py',
   'PYMODULE'),
  ('typing', '/usr/lib64/python3.6/typing.py', 'PYMODULE'),
  ('pyqtgraph.GraphicsScene.exportDialogTemplate_pyside',
   '/home/maxone/venvs/controller/lib64/python3.6/site-packages/pyqtgraph/GraphicsScene/exportDialogTemplate_pyside.py',
   'PYMODULE'),
  ('pyqtgraph.graphicsItems.PlotItem.PlotItem',
   '/home/maxone/venvs/controller/lib64/python3.6/site-packages/pyqtgraph/graphicsItems/PlotItem/PlotItem.py',
   'PYMODULE'),
  ('pyqtgraph.exporters.ImageExporter',
   '/home/maxone/venvs/controller/lib64/python3.6/site-packages/pyqtgraph/exporters/ImageExporter.py',
   'PYMODULE'),
  ('pyqtgraph.exporters.Exporter',
   '/home/maxone/venvs/controller/lib64/python3.6/site-packages/pyqtgraph/exporters/Exporter.py',
   'PYMODULE'),
  ('pyqtgraph.exporters.SVGExporter',
   '/home/maxone/venvs/controller/lib64/python3.6/site-packages/pyqtgraph/exporters/SVGExporter.py',
   'PYMODULE'),
  ('xml.dom.minidom', '/usr/lib64/python3.6/xml/dom/minidom.py', 'PYMODULE'),
  ('xml.dom.pulldom', '/usr/lib64/python3.6/xml/dom/pulldom.py', 'PYMODULE'),
  ('xml.dom.expatbuilder',
   '/usr/lib64/python3.6/xml/dom/expatbuilder.py',
   'PYMODULE'),
  ('xml.dom.NodeFilter',
   '/usr/lib64/python3.6/xml/dom/NodeFilter.py',
   'PYMODULE'),
  ('xml.dom.xmlbuilder',
   '/usr/lib64/python3.6/xml/dom/xmlbuilder.py',
   'PYMODULE'),
  ('xml.dom.minicompat',
   '/usr/lib64/python3.6/xml/dom/minicompat.py',
   'PYMODULE'),
  ('xml.dom.domreg', '/usr/lib64/python3.6/xml/dom/domreg.py', 'PYMODULE'),
  ('xml.dom', '/usr/lib64/python3.6/xml/dom/__init__.py', 'PYMODULE'),
  ('pyqtgraph.graphicsItems.PlotItem.plotConfigTemplate_pyside2',
   '/home/maxone/venvs/controller/lib64/python3.6/site-packages/pyqtgraph/graphicsItems/PlotItem/plotConfigTemplate_pyside2.py',
   'PYMODULE'),
  ('pyqtgraph.graphicsItems.PlotItem.plotConfigTemplate_pyqt5',
   '/home/maxone/venvs/controller/lib64/python3.6/site-packages/pyqtgraph/graphicsItems/PlotItem/plotConfigTemplate_pyqt5.py',
   'PYMODULE'),
  ('pyqtgraph.graphicsItems.PlotItem.plotConfigTemplate_pyside',
   '/home/maxone/venvs/controller/lib64/python3.6/site-packages/pyqtgraph/graphicsItems/PlotItem/plotConfigTemplate_pyside.py',
   'PYMODULE'),
  ('pyqtgraph.graphicsItems.PlotItem.plotConfigTemplate_pyqt',
   '/home/maxone/venvs/controller/lib64/python3.6/site-packages/pyqtgraph/graphicsItems/PlotItem/plotConfigTemplate_pyqt.py',
   'PYMODULE'),
  ('pyqtgraph.WidgetGroup',
   '/home/maxone/venvs/controller/lib64/python3.6/site-packages/pyqtgraph/WidgetGroup.py',
   'PYMODULE'),
  ('pyqtgraph.graphicsItems.InfiniteLine',
   '/home/maxone/venvs/controller/lib64/python3.6/site-packages/pyqtgraph/graphicsItems/InfiniteLine.py',
   'PYMODULE'),
  ('pyqtgraph.graphicsItems.TextItem',
   '/home/maxone/venvs/controller/lib64/python3.6/site-packages/pyqtgraph/graphicsItems/TextItem.py',
   'PYMODULE'),
  ('pyqtgraph.graphicsItems.ButtonItem',
   '/home/maxone/venvs/controller/lib64/python3.6/site-packages/pyqtgraph/graphicsItems/ButtonItem.py',
   'PYMODULE'),
  ('pyqtgraph.graphicsItems.LegendItem',
   '/home/maxone/venvs/controller/lib64/python3.6/site-packages/pyqtgraph/graphicsItems/LegendItem.py',
   'PYMODULE'),
  ('pyqtgraph.graphicsItems.GraphicsWidgetAnchor',
   '/home/maxone/venvs/controller/lib64/python3.6/site-packages/pyqtgraph/graphicsItems/GraphicsWidgetAnchor.py',
   'PYMODULE'),
  ('pyqtgraph.graphicsItems.ScatterPlotItem',
   '/home/maxone/venvs/controller/lib64/python3.6/site-packages/pyqtgraph/graphicsItems/ScatterPlotItem.py',
   'PYMODULE'),
  ('pyqtgraph.graphicsItems.LabelItem',
   '/home/maxone/venvs/controller/lib64/python3.6/site-packages/pyqtgraph/graphicsItems/LabelItem.py',
   'PYMODULE'),
  ('pyqtgraph.graphicsItems.AxisItem',
   '/home/maxone/venvs/controller/lib64/python3.6/site-packages/pyqtgraph/graphicsItems/AxisItem.py',
   'PYMODULE'),
  ('pyqtgraph.graphicsItems.PlotDataItem',
   '/home/maxone/venvs/controller/lib64/python3.6/site-packages/pyqtgraph/graphicsItems/PlotDataItem.py',
   'PYMODULE'),
  ('pyqtgraph.graphicsItems.PlotCurveItem',
   '/home/maxone/venvs/controller/lib64/python3.6/site-packages/pyqtgraph/graphicsItems/PlotCurveItem.py',
   'PYMODULE'),
  ('pyqtgraph.widgets.FileDialog',
   '/home/maxone/venvs/controller/lib64/python3.6/site-packages/pyqtgraph/widgets/FileDialog.py',
   'PYMODULE'),
  ('pyqtgraph.graphicsItems.PlotItem',
   '/home/maxone/venvs/controller/lib64/python3.6/site-packages/pyqtgraph/graphicsItems/PlotItem/__init__.py',
   'PYMODULE'),
  ('pyqtgraph.graphicsItems.ViewBox.ViewBox',
   '/home/maxone/venvs/controller/lib64/python3.6/site-packages/pyqtgraph/graphicsItems/ViewBox/ViewBox.py',
   'PYMODULE'),
  ('pyqtgraph.graphicsItems.ViewBox.ViewBoxMenu',
   '/home/maxone/venvs/controller/lib64/python3.6/site-packages/pyqtgraph/graphicsItems/ViewBox/ViewBoxMenu.py',
   'PYMODULE'),
  ('pyqtgraph.graphicsItems.ViewBox.axisCtrlTemplate_pyside2',
   '/home/maxone/venvs/controller/lib64/python3.6/site-packages/pyqtgraph/graphicsItems/ViewBox/axisCtrlTemplate_pyside2.py',
   'PYMODULE'),
  ('pyqtgraph.graphicsItems.ViewBox.axisCtrlTemplate_pyqt5',
   '/home/maxone/venvs/controller/lib64/python3.6/site-packages/pyqtgraph/graphicsItems/ViewBox/axisCtrlTemplate_pyqt5.py',
   'PYMODULE'),
  ('pyqtgraph.graphicsItems.ViewBox.axisCtrlTemplate_pyside',
   '/home/maxone/venvs/controller/lib64/python3.6/site-packages/pyqtgraph/graphicsItems/ViewBox/axisCtrlTemplate_pyside.py',
   'PYMODULE'),
  ('pyqtgraph.graphicsItems.ViewBox.axisCtrlTemplate_pyqt',
   '/home/maxone/venvs/controller/lib64/python3.6/site-packages/pyqtgraph/graphicsItems/ViewBox/axisCtrlTemplate_pyqt.py',
   'PYMODULE'),
  ('pyqtgraph.graphicsItems.ItemGroup',
   '/home/maxone/venvs/controller/lib64/python3.6/site-packages/pyqtgraph/graphicsItems/ItemGroup.py',
   'PYMODULE'),
  ('pyqtgraph.graphicsItems.ViewBox',
   '/home/maxone/venvs/controller/lib64/python3.6/site-packages/pyqtgraph/graphicsItems/ViewBox/__init__.py',
   'PYMODULE'),
  ('pyqtgraph.exporters',
   '/home/maxone/venvs/controller/lib64/python3.6/site-packages/pyqtgraph/exporters/__init__.py',
   'PYMODULE'),
  ('pyqtgraph.exporters.HDF5Exporter',
   '/home/maxone/venvs/controller/lib64/python3.6/site-packages/pyqtgraph/exporters/HDF5Exporter.py',
   'PYMODULE'),
  ('pyqtgraph.exporters.PrintExporter',
   '/home/maxone/venvs/controller/lib64/python3.6/site-packages/pyqtgraph/exporters/PrintExporter.py',
   'PYMODULE'),
  ('pyqtgraph.exporters.CSVExporter',
   '/home/maxone/venvs/controller/lib64/python3.6/site-packages/pyqtgraph/exporters/CSVExporter.py',
   'PYMODULE'),
  ('pyqtgraph.exporters.Matplotlib',
   '/home/maxone/venvs/controller/lib64/python3.6/site-packages/pyqtgraph/exporters/Matplotlib.py',
   'PYMODULE'),
  ('pyqtgraph.GraphicsScene.mouseEvents',
   '/home/maxone/venvs/controller/lib64/python3.6/site-packages/pyqtgraph/GraphicsScene/mouseEvents.py',
   'PYMODULE'),
  ('pyqtgraph.GraphicsScene',
   '/home/maxone/venvs/controller/lib64/python3.6/site-packages/pyqtgraph/GraphicsScene/__init__.py',
   'PYMODULE'),
  ('pyqtgraph.graphicsItems.GraphicsObject',
   '/home/maxone/venvs/controller/lib64/python3.6/site-packages/pyqtgraph/graphicsItems/GraphicsObject.py',
   'PYMODULE'),
  ('pyqtgraph.widgets.GraphicsView',
   '/home/maxone/venvs/controller/lib64/python3.6/site-packages/pyqtgraph/widgets/GraphicsView.py',
   'PYMODULE'),
  ('pyqtgraph.pixmaps',
   '/home/maxone/venvs/controller/lib64/python3.6/site-packages/pyqtgraph/pixmaps/__init__.py',
   'PYMODULE'),
  ('pyqtgraph.pixmaps.pixmapData_3',
   '/home/maxone/venvs/controller/lib64/python3.6/site-packages/pyqtgraph/pixmaps/pixmapData_3.py',
   'PYMODULE'),
  ('pyqtgraph.pixmaps.pixmapData_2',
   '/home/maxone/venvs/controller/lib64/python3.6/site-packages/pyqtgraph/pixmaps/pixmapData_2.py',
   'PYMODULE'),
  ('pyqtgraph.widgets.ColorButton',
   '/home/maxone/venvs/controller/lib64/python3.6/site-packages/pyqtgraph/widgets/ColorButton.py',
   'PYMODULE'),
  ('pyqtgraph.widgets.SpinBox',
   '/home/maxone/venvs/controller/lib64/python3.6/site-packages/pyqtgraph/widgets/SpinBox.py',
   'PYMODULE'),
  ('pyqtgraph.SignalProxy',
   '/home/maxone/venvs/controller/lib64/python3.6/site-packages/pyqtgraph/SignalProxy.py',
   'PYMODULE'),
  ('pyqtgraph.ThreadsafeTimer',
   '/home/maxone/venvs/controller/lib64/python3.6/site-packages/pyqtgraph/ThreadsafeTimer.py',
   'PYMODULE'),
  ('pyqtgraph.Qt',
   '/home/maxone/venvs/controller/lib64/python3.6/site-packages/pyqtgraph/Qt.py',
   'PYMODULE'),
  ('xml.etree.ElementTree',
   '/usr/lib64/python3.6/xml/etree/ElementTree.py',
   'PYMODULE'),
  ('xml.etree.cElementTree',
   '/usr/lib64/python3.6/xml/etree/cElementTree.py',
   'PYMODULE'),
  ('xml.etree.ElementInclude',
   '/usr/lib64/python3.6/xml/etree/ElementInclude.py',
   'PYMODULE'),
  ('xml.etree.ElementPath',
   '/usr/lib64/python3.6/xml/etree/ElementPath.py',
   'PYMODULE'),
  ('xml.etree', '/usr/lib64/python3.6/xml/etree/__init__.py', 'PYMODULE'),
  ('numpy',
   '/home/maxone/venvs/controller/lib64/python3.6/site-packages/numpy/__init__.py',
   'PYMODULE'),
  ('numpy.ctypeslib',
   '/home/maxone/venvs/controller/lib64/python3.6/site-packages/numpy/ctypeslib.py',
   'PYMODULE'),
  ('numpy.random',
   '/home/maxone/venvs/controller/lib64/python3.6/site-packages/numpy/random/__init__.py',
   'PYMODULE'),
  ('numpy.random._pickle',
   '/home/maxone/venvs/controller/lib64/python3.6/site-packages/numpy/random/_pickle.py',
   'PYMODULE'),
  ('numpy.polynomial',
   '/home/maxone/venvs/controller/lib64/python3.6/site-packages/numpy/polynomial/__init__.py',
   'PYMODULE'),
  ('numpy.polynomial.laguerre',
   '/home/maxone/venvs/controller/lib64/python3.6/site-packages/numpy/polynomial/laguerre.py',
   'PYMODULE'),
  ('numpy.polynomial._polybase',
   '/home/maxone/venvs/controller/lib64/python3.6/site-packages/numpy/polynomial/_polybase.py',
   'PYMODULE'),
  ('numpy.polynomial.hermite_e',
   '/home/maxone/venvs/controller/lib64/python3.6/site-packages/numpy/polynomial/hermite_e.py',
   'PYMODULE'),
  ('numpy.polynomial.hermite',
   '/home/maxone/venvs/controller/lib64/python3.6/site-packages/numpy/polynomial/hermite.py',
   'PYMODULE'),
  ('numpy.polynomial.legendre',
   '/home/maxone/venvs/controller/lib64/python3.6/site-packages/numpy/polynomial/legendre.py',
   'PYMODULE'),
  ('numpy.polynomial.chebyshev',
   '/home/maxone/venvs/controller/lib64/python3.6/site-packages/numpy/polynomial/chebyshev.py',
   'PYMODULE'),
  ('numpy.polynomial.polynomial',
   '/home/maxone/venvs/controller/lib64/python3.6/site-packages/numpy/polynomial/polynomial.py',
   'PYMODULE'),
  ('numpy.polynomial.polyutils',
   '/home/maxone/venvs/controller/lib64/python3.6/site-packages/numpy/polynomial/polyutils.py',
   'PYMODULE'),
  ('numpy._distributor_init',
   '/home/maxone/venvs/controller/lib64/python3.6/site-packages/numpy/_distributor_init.py',
   'PYMODULE'),
  ('numpy.__config__',
   '/home/maxone/venvs/controller/lib64/python3.6/site-packages/numpy/__config__.py',
   'PYMODULE'),
  ('pyqtgraph',
   '/home/maxone/venvs/controller/lib64/python3.6/site-packages/pyqtgraph/__init__.py',
   'PYMODULE'),
  ('pyqtgraph.console',
   '/home/maxone/venvs/controller/lib64/python3.6/site-packages/pyqtgraph/console/__init__.py',
   'PYMODULE'),
  ('pyqtgraph.console.Console',
   '/home/maxone/venvs/controller/lib64/python3.6/site-packages/pyqtgraph/console/Console.py',
   'PYMODULE'),
  ('pyqtgraph.console.template_pyqt',
   '/home/maxone/venvs/controller/lib64/python3.6/site-packages/pyqtgraph/console/template_pyqt.py',
   'PYMODULE'),
  ('pyqtgraph.console.CmdInput',
   '/home/maxone/venvs/controller/lib64/python3.6/site-packages/pyqtgraph/console/CmdInput.py',
   'PYMODULE'),
  ('pyqtgraph.console.template_pyqt5',
   '/home/maxone/venvs/controller/lib64/python3.6/site-packages/pyqtgraph/console/template_pyqt5.py',
   'PYMODULE'),
  ('pyqtgraph.console.template_pyside2',
   '/home/maxone/venvs/controller/lib64/python3.6/site-packages/pyqtgraph/console/template_pyside2.py',
   'PYMODULE'),
  ('pyqtgraph.console.template_pyside',
   '/home/maxone/venvs/controller/lib64/python3.6/site-packages/pyqtgraph/console/template_pyside.py',
   'PYMODULE'),
  ('pyqtgraph.exceptionHandling',
   '/home/maxone/venvs/controller/lib64/python3.6/site-packages/pyqtgraph/exceptionHandling.py',
   'PYMODULE'),
  ('pyqtgraph.graphicsWindows',
   '/home/maxone/venvs/controller/lib64/python3.6/site-packages/pyqtgraph/graphicsWindows.py',
   'PYMODULE'),
  ('pyqtgraph.SRTTransform3D',
   '/home/maxone/venvs/controller/lib64/python3.6/site-packages/pyqtgraph/SRTTransform3D.py',
   'PYMODULE'),
  ('pyqtgraph.Transform3D',
   '/home/maxone/venvs/controller/lib64/python3.6/site-packages/pyqtgraph/Transform3D.py',
   'PYMODULE'),
  ('pyqtgraph.SRTTransform',
   '/home/maxone/venvs/controller/lib64/python3.6/site-packages/pyqtgraph/SRTTransform.py',
   'PYMODULE'),
  ('pyqtgraph.Vector',
   '/home/maxone/venvs/controller/lib64/python3.6/site-packages/pyqtgraph/Vector.py',
   'PYMODULE'),
  ('pyqtgraph.imageview',
   '/home/maxone/venvs/controller/lib64/python3.6/site-packages/pyqtgraph/imageview/__init__.py',
   'PYMODULE'),
  ('pyqtgraph.imageview.ImageView',
   '/home/maxone/venvs/controller/lib64/python3.6/site-packages/pyqtgraph/imageview/ImageView.py',
   'PYMODULE'),
  ('pyqtgraph.imageview.ImageViewTemplate_pyqt',
   '/home/maxone/venvs/controller/lib64/python3.6/site-packages/pyqtgraph/imageview/ImageViewTemplate_pyqt.py',
   'PYMODULE'),
  ('pyqtgraph.imageview.ImageViewTemplate_pyqt5',
   '/home/maxone/venvs/controller/lib64/python3.6/site-packages/pyqtgraph/imageview/ImageViewTemplate_pyqt5.py',
   'PYMODULE'),
  ('pyqtgraph.imageview.ImageViewTemplate_pyside2',
   '/home/maxone/venvs/controller/lib64/python3.6/site-packages/pyqtgraph/imageview/ImageViewTemplate_pyside2.py',
   'PYMODULE'),
  ('pyqtgraph.imageview.ImageViewTemplate_pyside',
   '/home/maxone/venvs/controller/lib64/python3.6/site-packages/pyqtgraph/imageview/ImageViewTemplate_pyside.py',
   'PYMODULE'),
  ('pyqtgraph.widgets.RemoteGraphicsView',
   '/home/maxone/venvs/controller/lib64/python3.6/site-packages/pyqtgraph/widgets/RemoteGraphicsView.py',
   'PYMODULE'),
  ('pyqtgraph.widgets.GroupBox',
   '/home/maxone/venvs/controller/lib64/python3.6/site-packages/pyqtgraph/widgets/GroupBox.py',
   'PYMODULE'),
  ('pyqtgraph.widgets.TableWidget',
   '/home/maxone/venvs/controller/lib64/python3.6/site-packages/pyqtgraph/widgets/TableWidget.py',
   'PYMODULE'),
  ('pyqtgraph.widgets.LayoutWidget',
   '/home/maxone/venvs/controller/lib64/python3.6/site-packages/pyqtgraph/widgets/LayoutWidget.py',
   'PYMODULE'),
  ('pyqtgraph.widgets.DiffTreeWidget',
   '/home/maxone/venvs/controller/lib64/python3.6/site-packages/pyqtgraph/widgets/DiffTreeWidget.py',
   'PYMODULE'),
  ('pyqtgraph.widgets.DataTreeWidget',
   '/home/maxone/venvs/controller/lib64/python3.6/site-packages/pyqtgraph/widgets/DataTreeWidget.py',
   'PYMODULE'),
  ('pyqtgraph.widgets.FeedbackButton',
   '/home/maxone/venvs/controller/lib64/python3.6/site-packages/pyqtgraph/widgets/FeedbackButton.py',
   'PYMODULE'),
  ('pyqtgraph.widgets.PathButton',
   '/home/maxone/venvs/controller/lib64/python3.6/site-packages/pyqtgraph/widgets/PathButton.py',
   'PYMODULE'),
  ('pyqtgraph.widgets.GraphicsLayoutWidget',
   '/home/maxone/venvs/controller/lib64/python3.6/site-packages/pyqtgraph/widgets/GraphicsLayoutWidget.py',
   'PYMODULE'),
  ('pyqtgraph.widgets.JoystickButton',
   '/home/maxone/venvs/controller/lib64/python3.6/site-packages/pyqtgraph/widgets/JoystickButton.py',
   'PYMODULE'),
  ('pyqtgraph.widgets.DataFilterWidget',
   '/home/maxone/venvs/controller/lib64/python3.6/site-packages/pyqtgraph/widgets/DataFilterWidget.py',
   'PYMODULE'),
  ('pyqtgraph.widgets.ComboBox',
   '/home/maxone/venvs/controller/lib64/python3.6/site-packages/pyqtgraph/widgets/ComboBox.py',
   'PYMODULE'),
  ('pyqtgraph.widgets.PlotWidget',
   '/home/maxone/venvs/controller/lib64/python3.6/site-packages/pyqtgraph/widgets/PlotWidget.py',
   'PYMODULE'),
  ('pyqtgraph.widgets.BusyCursor',
   '/home/maxone/venvs/controller/lib64/python3.6/site-packages/pyqtgraph/widgets/BusyCursor.py',
   'PYMODULE'),
  ('pyqtgraph.widgets.CheckTable',
   '/home/maxone/venvs/controller/lib64/python3.6/site-packages/pyqtgraph/widgets/CheckTable.py',
   'PYMODULE'),
  ('pyqtgraph.widgets.HistogramLUTWidget',
   '/home/maxone/venvs/controller/lib64/python3.6/site-packages/pyqtgraph/widgets/HistogramLUTWidget.py',
   'PYMODULE'),
  ('pyqtgraph.widgets.ValueLabel',
   '/home/maxone/venvs/controller/lib64/python3.6/site-packages/pyqtgraph/widgets/ValueLabel.py',
   'PYMODULE'),
  ('pyqtgraph.widgets.ColorMapWidget',
   '/home/maxone/venvs/controller/lib64/python3.6/site-packages/pyqtgraph/widgets/ColorMapWidget.py',
   'PYMODULE'),
  ('pyqtgraph.widgets.ScatterPlotWidget',
   '/home/maxone/venvs/controller/lib64/python3.6/site-packages/pyqtgraph/widgets/ScatterPlotWidget.py',
   'PYMODULE'),
  ('pyqtgraph.widgets.MultiPlotWidget',
   '/home/maxone/venvs/controller/lib64/python3.6/site-packages/pyqtgraph/widgets/MultiPlotWidget.py',
   'PYMODULE'),
  ('pyqtgraph.graphicsItems.FillBetweenItem',
   '/home/maxone/venvs/controller/lib64/python3.6/site-packages/pyqtgraph/graphicsItems/FillBetweenItem.py',
   'PYMODULE'),
  ('pyqtgraph.graphicsItems.LinearRegionItem',
   '/home/maxone/venvs/controller/lib64/python3.6/site-packages/pyqtgraph/graphicsItems/LinearRegionItem.py',
   'PYMODULE'),
  ('pyqtgraph.graphicsItems.IsocurveItem',
   '/home/maxone/venvs/controller/lib64/python3.6/site-packages/pyqtgraph/graphicsItems/IsocurveItem.py',
   'PYMODULE'),
  ('pyqtgraph.graphicsItems.ErrorBarItem',
   '/home/maxone/venvs/controller/lib64/python3.6/site-packages/pyqtgraph/graphicsItems/ErrorBarItem.py',
   'PYMODULE'),
  ('pyqtgraph.graphicsItems.MultiPlotItem',
   '/home/maxone/venvs/controller/lib64/python3.6/site-packages/pyqtgraph/graphicsItems/MultiPlotItem.py',
   'PYMODULE'),
  ('pyqtgraph.graphicsItems.CurvePoint',
   '/home/maxone/venvs/controller/lib64/python3.6/site-packages/pyqtgraph/graphicsItems/CurvePoint.py',
   'PYMODULE'),
  ('pyqtgraph.graphicsItems.DateAxisItem',
   '/home/maxone/venvs/controller/lib64/python3.6/site-packages/pyqtgraph/graphicsItems/DateAxisItem.py',
   'PYMODULE'),
  ('pyqtgraph.graphicsItems.ImageItem',
   '/home/maxone/venvs/controller/lib64/python3.6/site-packages/pyqtgraph/graphicsItems/ImageItem.py',
   'PYMODULE'),
  ('pyqtgraph.graphicsItems.ArrowItem',
   '/home/maxone/venvs/controller/lib64/python3.6/site-packages/pyqtgraph/graphicsItems/ArrowItem.py',
   'PYMODULE'),
  ('pyqtgraph.graphicsItems.BarGraphItem',
   '/home/maxone/venvs/controller/lib64/python3.6/site-packages/pyqtgraph/graphicsItems/BarGraphItem.py',
   'PYMODULE'),
  ('pyqtgraph.graphicsItems.GradientLegend',
   '/home/maxone/venvs/controller/lib64/python3.6/site-packages/pyqtgraph/graphicsItems/GradientLegend.py',
   'PYMODULE'),
  ('pyqtgraph.graphicsItems.GridItem',
   '/home/maxone/venvs/controller/lib64/python3.6/site-packages/pyqtgraph/graphicsItems/GridItem.py',
   'PYMODULE'),
  ('pyqtgraph.graphicsItems.HistogramLUTItem',
   '/home/maxone/venvs/controller/lib64/python3.6/site-packages/pyqtgraph/graphicsItems/HistogramLUTItem.py',
   'PYMODULE'),
  ('pyqtgraph.graphicsItems.ROI',
   '/home/maxone/venvs/controller/lib64/python3.6/site-packages/pyqtgraph/graphicsItems/ROI.py',
   'PYMODULE'),
  ('pyqtgraph.graphicsItems.UIGraphicsItem',
   '/home/maxone/venvs/controller/lib64/python3.6/site-packages/pyqtgraph/graphicsItems/UIGraphicsItem.py',
   'PYMODULE'),
  ('pyqtgraph.graphicsItems.GraphicsLayout',
   '/home/maxone/venvs/controller/lib64/python3.6/site-packages/pyqtgraph/graphicsItems/GraphicsLayout.py',
   'PYMODULE'),
  ('pyqtgraph.graphicsItems.GraphItem',
   '/home/maxone/venvs/controller/lib64/python3.6/site-packages/pyqtgraph/graphicsItems/GraphItem.py',
   'PYMODULE'),
  ('pyqtgraph.graphicsItems.ScaleBar',
   '/home/maxone/venvs/controller/lib64/python3.6/site-packages/pyqtgraph/graphicsItems/ScaleBar.py',
   'PYMODULE'),
  ('pyqtgraph.graphicsItems.VTickGroup',
   '/home/maxone/venvs/controller/lib64/python3.6/site-packages/pyqtgraph/graphicsItems/VTickGroup.py',
   'PYMODULE')])
