('C:\\Users\\rashb\\Documents\\NDEL\\Software_local\\stimulation-controller\\Windows\\build\\stimulation_controller\\PKG-00.pkg',
 {'BINARY': 1,
  'DATA': 1,
  'EXECUTABLE': 1,
  'EXTENSION': 1,
  'PYMODULE': 1,
  'PYSOURCE': 1,
  'PYZ': 0},
 [('PYZ-00.pyz',
   'C:\\Users\\rashb\\Documents\\NDEL\\Software_local\\stimulation-controller\\Windows\\build\\stimulation_controller\\PYZ-00.pyz',
   'PYZ'),
  ('struct',
   'C:\\Users\\rashb\\AppData\\Local\\Programs\\Python\\Python36\\lib\\struct.pyo',
   'PYMODULE'),
  ('pyimod01_os_path',
   'c:\\users\\rashb\\documents\\ndel\\software_local\\venvs\\controller\\lib\\site-packages\\PyInstaller\\loader\\pyimod01_os_path.pyc',
   'PYMODULE'),
  ('pyimod02_archive',
   'c:\\users\\rashb\\documents\\ndel\\software_local\\venvs\\controller\\lib\\site-packages\\PyInstaller\\loader\\pyimod02_archive.pyc',
   'PYMODULE'),
  ('pyimod03_importers',
   'c:\\users\\rashb\\documents\\ndel\\software_local\\venvs\\controller\\lib\\site-packages\\PyInstaller\\loader\\pyimod03_importers.pyc',
   'PYMODULE'),
  ('pyiboot01_bootstrap',
   'c:\\users\\rashb\\documents\\ndel\\software_local\\venvs\\controller\\lib\\site-packages\\PyInstaller\\loader\\pyiboot01_bootstrap.py',
   'PYSOURCE'),
  ('pyi_rth_pkgres',
   'c:\\users\\rashb\\documents\\ndel\\software_local\\venvs\\controller\\lib\\site-packages\\PyInstaller\\hooks\\rthooks\\pyi_rth_pkgres.py',
   'PYSOURCE'),
  ('pyi_rth_multiprocessing',
   'c:\\users\\rashb\\documents\\ndel\\software_local\\venvs\\controller\\lib\\site-packages\\PyInstaller\\hooks\\rthooks\\pyi_rth_multiprocessing.py',
   'PYSOURCE'),
  ('pyi_rth_pyside2',
   'c:\\users\\rashb\\documents\\ndel\\software_local\\venvs\\controller\\lib\\site-packages\\PyInstaller\\hooks\\rthooks\\pyi_rth_pyside2.py',
   'PYSOURCE'),
  ('stimulation_controller',
   'C:\\Users\\rashb\\Documents\\NDEL\\Software_local\\stimulation-controller\\stimulation_controller.py',
   'PYSOURCE'),
  ('stimulation_controller.exe.manifest',
   'C:\\Users\\rashb\\Documents\\NDEL\\Software_local\\stimulation-controller\\Windows\\build\\stimulation_controller\\stimulation_controller.exe.manifest',
   'BINARY')],
 True,
 False,
 False,
 [])
